<svg width="244" height="243" viewBox="0 0 244 243" fill="none" xmlns="http://www.w3.org/2000/svg">
    <g clip-path="url(#clip0)">
        <path d="M114.743 229.84C178.113 229.84 229.485 178.389 229.485 114.92C229.485 51.4514 178.113 0 114.743 0C51.372 0 0 51.4514 0 114.92C0 178.389 51.372 229.84 114.743 229.84Z" fill="#FEFEFE" />
        <path d="M101.145 81.1021H100.839C99.7696 81.1021 98.8529 81.2551 97.9361 81.5611C97.0194 81.8672 96.2555 82.3262 95.6443 82.9383C95.4915 83.0913 95.3388 83.2444 95.186 83.3974C94.8804 83.8565 94.5748 84.4686 94.422 85.2337C94.1165 86.4578 94.422 87.682 94.5748 88.6002C94.8804 89.9774 95.3388 91.2015 96.1027 92.5788C96.7138 93.6499 97.4778 94.8741 98.7001 96.0983C99.6168 97.1694 100.686 98.0876 102.061 99.1587C104.506 100.995 107.256 102.678 110.77 104.208C114.59 105.892 119.021 107.422 124.063 108.799C126.354 109.411 128.646 109.87 130.938 110.482C123.451 110.788 114.895 111.401 105.728 112.625C101.145 113.237 96.5611 113.849 91.6719 114.614C89.3801 114.92 86.9355 115.379 84.6437 115.685L83.727 115.838L82.9631 115.991L82.0463 116.144L80.5185 116.45L79.9073 116.603C77.1572 117.062 74.2542 117.521 71.5041 118.134C66.3093 119.052 61.8785 120.123 57.7533 121.194C55.3087 121.806 53.1697 122.571 50.8779 123.183C48.5861 123.948 46.5999 124.714 44.9192 125.632C43.0858 126.55 41.7107 127.468 40.4884 128.386C39.8773 128.845 39.5717 129.304 39.1133 129.916C38.655 130.528 38.3494 131.14 38.1966 131.753C37.891 132.977 38.1966 134.354 38.9606 135.578C39.4189 136.19 39.8773 136.802 40.6412 137.414C41.4051 138.18 42.4746 138.792 43.3914 139.404C44.4609 140.016 45.6832 140.475 47.0582 140.934C47.6694 141.087 48.2805 141.24 49.0445 141.393C47.9749 141.546 46.9054 141.852 45.9887 142.005C43.6969 142.617 41.5579 143.382 39.8773 144.147C38.3494 144.759 36.6688 145.525 35.1409 146.596C34.5297 147.055 33.9186 147.514 33.4602 148.126C33.3075 148.279 33.3075 148.432 33.1547 148.585C33.0019 148.738 33.0019 148.891 32.8491 149.044C32.6963 149.35 32.5435 149.503 32.3907 149.962C32.2379 150.574 32.0852 151.186 32.2379 151.799C32.3907 152.411 32.5435 153.176 33.0019 153.788C33.4602 154.4 33.9186 155.012 34.6825 155.624C35.4465 156.236 36.2104 156.848 37.4327 157.613C39.7245 158.991 42.3219 160.062 45.5304 160.674C46.4471 160.827 47.5166 160.98 48.4333 161.133C47.8222 161.133 47.211 161.286 46.7527 161.592C45.8359 161.898 44.9192 162.357 44.1553 162.816C43.3914 163.122 42.7802 163.581 42.1691 164.04C41.5579 164.499 41.0996 165.111 40.6412 165.571C40.1828 166.183 39.8773 166.795 39.7245 167.407C39.4189 168.784 39.7245 170.161 40.6412 171.691C41.5579 173.375 43.0858 174.752 45.072 176.129C46.9054 177.2 48.8917 178.118 51.6418 178.884C53.9336 179.496 56.6838 179.955 59.7395 180.261C62.0313 180.414 64.3231 180.567 66.9205 180.567C67.5316 180.567 68.1428 180.567 68.7539 180.567H69.2123H69.8234C69.0595 180.72 68.1428 180.873 67.3788 181.179C65.851 181.638 64.6287 182.25 63.4064 182.862C62.3369 183.321 61.573 183.933 60.9618 184.392C60.6562 184.545 60.5034 184.851 60.3507 185.157C60.1979 185.464 60.0451 185.77 59.8923 186.229C59.7395 186.688 59.7395 187.453 60.0451 187.912C60.3507 188.524 60.6562 188.983 61.2674 189.442C61.8785 189.901 62.4897 190.36 63.2536 190.666C64.1703 191.125 65.087 191.431 66.0038 191.737C66.9205 192.044 67.99 192.35 69.0595 192.656C70.8929 193.115 73.1847 193.574 75.9349 194.033C78.2267 194.339 80.2129 194.645 82.1991 194.798C83.1158 194.951 84.1854 194.951 85.1021 194.951C87.2411 195.104 89.3801 195.104 91.6719 195.104H91.9775C100.381 195.104 109.242 194.492 118.104 193.268C126.66 192.197 135.369 190.36 144.078 188.218C148.356 187.147 152.634 185.923 156.912 184.545C160.273 183.474 163.787 182.25 166.843 181.179L169.746 180.108C177.843 177.353 186.4 174.446 195.261 172.763L195.414 172.61C198.317 172.151 201.22 171.691 204.581 171.385C207.79 171.079 210.998 170.773 214.207 170.467C217.568 170.161 221.082 170.161 224.291 170.161C227.346 170.161 230.555 170.314 233.458 170.467C234.68 170.62 235.902 170.62 236.972 170.773H237.125C237.277 170.926 237.277 170.926 237.43 170.926C237.583 171.079 237.736 171.079 237.889 171.079C238.194 171.079 238.347 170.926 238.5 170.773C240.028 168.325 241.25 165.418 242.014 162.357C242.778 159.297 243.236 156.083 243.389 152.411C243.542 149.044 243.389 145.525 243.083 141.546C242.778 138.026 242.167 134.354 241.25 130.528C240.18 126.091 238.958 121.959 237.43 117.981C235.902 114.002 234.222 110.635 232.235 107.728C232.083 107.575 232.083 107.422 231.93 107.422C231.93 107.422 231.93 107.269 231.93 107.116C231.777 106.81 231.472 106.504 231.166 106.504C231.013 106.504 231.013 106.504 230.86 106.504C227.957 107.422 224.902 108.034 221.999 108.646L222.152 108.799C217.874 109.411 213.901 109.87 210.387 110.023C209.012 110.176 207.331 110.176 205.651 110.176C203.359 110.176 201.067 110.023 198.775 109.87L198.928 110.023C190.525 109.258 182.427 107.422 174.482 104.668C170.51 103.137 166.537 101.454 162.87 99.6178C161.954 99.1587 161.037 98.6997 160.12 98.2406C159.662 97.9345 159.204 97.7815 158.745 97.4755C158.134 97.1694 157.676 96.8634 157.065 96.5573C155.231 95.4862 153.245 94.568 151.106 93.6499C147.592 92.2727 143.772 91.0485 139.494 89.9774C135.98 89.0592 132.313 88.4471 129.105 87.8351L127.271 87.529C125.132 87.0699 122.84 86.6109 120.701 86.1518C120.09 85.9988 118.715 85.6927 117.493 85.3867C116.423 85.0806 115.507 84.7746 114.437 84.4686L113.979 84.3155C112.909 84.0095 111.992 83.7034 110.923 83.3974C108.937 82.7853 106.339 82.1732 103.436 81.7141C103.131 81.1021 102.061 81.1021 101.145 81.1021Z" fill="#E0947D" />
        <path d="M140.869 25.8608C139.341 25.8608 137.813 26.0139 136.286 26.4729C134.758 26.932 133.23 27.5441 131.702 28.3092C130.327 29.0743 128.952 29.9925 127.729 31.2166C125.438 33.359 123.757 35.9603 122.84 39.0208C122.229 37.4906 121.312 36.1134 120.09 34.8892C117.034 31.8287 112.909 31.0636 110.006 30.7576C109.548 30.7576 109.09 30.7576 108.631 30.7576C107.256 30.7576 105.728 30.9106 104.2 31.2166C102.214 31.6757 100.381 32.2878 98.5473 33.2059C94.8804 35.0422 91.9775 38.1027 90.4496 41.6222C89.6857 43.4584 89.2273 45.2947 89.2273 47.437C89.2273 48.2022 89.2273 49.1203 89.3801 50.0384C89.0745 49.7324 88.6161 49.5794 88.3106 49.2733C86.1716 48.0491 83.5742 47.437 80.824 47.284C80.6713 47.284 80.6713 47.284 80.5185 47.284C78.0739 47.284 75.4765 47.8961 73.1847 48.9673C71.9624 49.4263 70.8929 50.1914 69.8234 50.9566C69.3651 51.4156 68.9067 51.7217 68.4483 52.1807C67.99 52.6398 67.5316 53.0989 67.0733 53.711C66.6149 54.3231 66.1565 55.0882 65.6982 55.8533C65.2398 54.9351 64.6287 54.017 64.0175 53.2519C62.948 52.0277 61.4202 51.1096 59.5867 50.4975C58.5172 50.1914 57.4477 50.0384 56.2254 50.0384C55.6143 50.0384 55.0031 50.0384 54.5448 50.1914C52.7113 50.3445 51.0307 50.9566 49.0445 51.7217C47.3638 52.4868 45.6831 53.5579 44.0025 54.9352C42.4746 56.1593 40.9468 57.5365 39.7245 59.2198C37.891 61.6681 35.5992 65.4937 35.5992 70.0844C35.5992 72.6858 36.3632 75.2872 38.0438 77.5825C39.1133 79.2658 40.6412 80.796 42.6274 82.0202C41.5579 81.7141 40.4884 81.7141 39.4189 81.7141C37.7383 81.7141 36.0576 82.0202 34.6825 82.4792C33.0019 83.0913 31.6268 84.0095 30.2517 85.2336C29.0294 86.3048 28.1127 87.682 27.196 89.3652C25.6681 92.4257 24.7514 95.9452 24.9042 99.7708C24.9042 103.596 25.9737 107.116 27.6543 110.023C28.4183 111.401 29.335 112.625 30.5573 113.543C31.7796 114.614 33.0019 115.379 34.5297 115.991C35.9048 116.603 37.5855 116.756 39.2661 116.756C40.794 116.756 42.3218 116.603 44.0025 116.144C43.8497 116.909 43.6969 117.521 43.8497 118.287C43.8497 119.358 44.1553 120.429 44.6136 121.5C45.072 122.418 45.8359 123.183 46.7527 123.795C47.211 124.101 47.6694 124.254 48.2805 124.56C48.5861 124.713 48.8917 124.713 49.0445 124.713C47.8222 126.856 46.9054 129.151 46.2943 131.293C45.6831 133.742 45.5304 136.19 45.8359 138.486C45.9887 139.71 46.1415 140.781 46.5999 141.852C46.9054 142.923 47.3638 143.994 47.8222 145.066C48.7389 147.055 49.9612 148.891 51.6418 150.574C53.1697 152.258 54.8503 153.635 56.8366 154.859C58.67 156.083 60.809 157.001 62.948 157.766C65.2398 158.531 67.5316 158.838 69.8234 158.838C71.9624 158.838 73.9487 158.531 75.9349 157.919C78.685 157.001 81.2824 155.471 83.4214 153.329C85.7132 151.033 87.5466 148.126 88.9217 144.453C89.0745 144.147 88.9217 143.841 88.7689 143.688C89.6857 142.77 90.7552 141.852 91.6719 141.087C93.9637 139.404 96.2555 137.873 98.7001 136.955C100.686 136.19 102.673 135.578 104.812 135.272C105.881 135.119 107.103 135.119 108.173 135.119C109.395 135.119 110.617 135.119 111.687 135.272C116.423 135.884 120.854 137.567 124.215 139.098C126.049 139.863 127.882 140.781 129.868 141.546L130.327 141.699L130.48 141.852C132.466 142.77 134.452 143.688 136.591 144.606C140.564 146.29 144.689 147.667 148.814 148.585C152.939 149.656 157.217 150.268 161.343 150.421C162.412 150.421 163.482 150.574 164.398 150.574C167.607 150.574 170.815 150.268 173.871 149.809C177.996 149.197 182.121 147.973 186.094 146.29C188.08 145.525 189.914 144.453 191.9 143.382C192.817 142.77 193.733 142.158 194.803 141.393C196.483 140.016 198.164 138.179 199.539 136.037C200.761 134.201 201.984 131.906 202.9 129.457C203.664 127.315 204.275 124.867 204.581 122.418C204.887 120.123 204.887 117.827 204.428 115.532C204.123 113.39 203.359 111.247 202.442 109.411C201.984 108.493 201.373 107.728 200.609 106.81C199.997 106.045 199.234 105.433 198.317 104.668C196.789 103.596 195.108 102.678 193.122 102.219C192.511 102.066 191.9 101.913 191.136 101.76C191.9 101.454 192.511 100.842 193.275 100.23C194.956 98.6996 196.178 96.5573 197.095 93.9559C197.858 91.6606 198.317 89.0592 198.317 86.1518C198.317 83.5504 198.011 80.796 197.4 78.0416C196.789 75.4402 195.872 73.1448 194.803 71.0025C193.733 69.0132 192.053 67.0239 190.066 65.3407C187.927 63.6574 185.636 62.1272 182.885 61.0561C180.441 60.1379 177.843 59.5258 175.246 59.5258H174.941C172.19 59.5258 169.746 60.2909 167.76 61.8212C166.69 62.5863 165.773 63.5044 165.009 64.5756C164.704 65.0346 164.398 65.3407 164.245 65.7998C164.093 65.0346 163.787 64.2695 163.482 63.5044C162.718 61.9742 161.495 60.75 159.967 59.8319C158.592 59.0668 156.912 58.6077 155.078 58.6077H154.925C154.314 58.6077 153.856 58.6077 153.092 58.7607C153.245 58.7607 153.398 58.6077 153.55 58.3016C154.467 57.3835 155.384 56.1593 156.148 54.9352C157.676 52.6398 158.592 49.8854 159.051 47.131C159.509 44.3766 159.356 41.6222 158.592 39.0208C157.828 36.4194 156.453 33.971 154.62 31.8287C152.634 29.6864 150.036 28.0032 146.828 26.932C144.689 26.1669 142.703 25.8608 140.869 25.8608ZM83.8798 150.421C84.6437 149.044 85.4076 147.667 86.3244 146.443C85.4076 147.973 84.6437 149.197 83.8798 150.421Z" fill="#04BFBF" />
        <path d="M95.6444 201.378C95.6444 206.427 99.7696 210.559 104.812 210.559C109.853 210.559 113.979 206.427 113.979 201.378C113.979 196.328 109.853 192.196 104.812 192.196C99.7696 192.196 95.6444 196.328 95.6444 201.378Z" fill="#04BFBF" />
        <path d="M117.951 206.428C117.951 208.264 119.479 209.794 121.312 209.794C123.146 209.794 124.674 208.264 124.674 206.428C124.674 204.591 123.146 203.061 121.312 203.061C119.479 203.061 117.951 204.591 117.951 206.428Z" fill="#04BFBF" />
        <path d="M87.0883 219.587C87.0883 220.659 88.005 221.577 89.0745 221.577C90.144 221.577 91.0607 220.659 91.0607 219.587C91.0607 218.516 90.144 217.598 89.0745 217.598C88.005 217.598 87.0883 218.516 87.0883 219.587Z" fill="#04BFBF" />
        <path d="M201.678 95.6392C201.678 98.2406 203.817 100.383 206.415 100.383C209.012 100.383 211.151 98.2406 211.151 95.6392C211.151 93.0378 209.012 90.8955 206.415 90.8955C203.817 90.8955 201.678 93.0378 201.678 95.6392Z" fill="#04BFBF" />
        <path d="M66.6149 38.5617C66.6149 41.3161 68.9067 43.7644 71.8096 43.7644C74.5598 43.7644 77.0044 41.4691 77.0044 38.5617C77.0044 35.8073 74.7126 33.3589 71.8096 33.3589C69.0595 33.5119 66.6149 35.8073 66.6149 38.5617Z" fill="#04BFBF" />
        <path d="M88.6162 24.7897C88.6162 25.7078 89.3801 26.4729 90.2968 26.4729C91.2135 26.4729 91.9775 25.7078 91.9775 24.7897C91.9775 23.8716 91.2135 23.1064 90.2968 23.1064C89.5329 23.1064 88.6162 23.8716 88.6162 24.7897Z" fill="#04BFBF" />
        <path d="M39.4189 89.5184C38.8077 89.6715 38.3494 89.8245 37.7382 90.1305C37.2799 90.4366 36.8215 90.7426 36.3632 91.0487C35.5992 91.6608 34.9881 92.5789 34.3769 93.497C33.9186 94.4152 33.613 95.4863 33.3074 96.5575C33.0019 98.8528 33.1546 101.301 33.9186 103.444C34.6825 105.586 35.9048 107.575 37.7382 108.952C38.1966 109.258 38.655 109.564 39.2661 109.87C39.4189 110.023 39.7245 109.87 39.8772 109.717C40.03 109.564 39.8772 109.258 39.7245 109.105C39.2661 108.952 38.8077 108.646 38.3494 108.34C37.7382 107.881 37.2799 107.422 36.9743 106.963C36.3632 106.198 35.9048 105.433 35.5992 104.515C35.1409 103.444 34.8353 102.219 34.6825 101.148C34.6825 101.148 34.6825 101.148 34.6825 100.995C34.5297 99.924 34.5297 98.8528 34.6825 97.7817C34.8353 97.0166 34.9881 96.0984 35.2937 95.3333C35.5992 94.7212 35.9048 94.2621 36.2104 93.8031C36.5159 93.497 36.8215 93.191 37.1271 92.8849C37.4327 92.7319 37.7382 92.4259 38.0438 92.2729C38.5022 92.1198 38.9605 91.9668 39.4189 91.8138C40.03 91.8138 40.4884 91.8138 41.0995 91.8138C41.5579 91.8138 42.0163 91.9668 42.4746 92.1198C43.2385 92.2729 44.0025 91.8138 44.1553 91.2017C44.3081 90.8957 44.1553 90.4366 44.0025 90.1305C43.8497 89.8245 43.5441 89.5184 43.2385 89.5184C42.4746 89.3654 41.8635 89.3654 41.0995 89.2124C40.9468 89.2124 40.9468 89.2124 40.794 89.2124C40.6412 89.3654 40.03 89.5184 39.4189 89.5184ZM36.5159 93.8031C36.5159 93.9561 36.5159 93.9561 36.5159 93.8031C36.5159 93.9561 36.5159 93.9561 36.5159 93.8031ZM34.9881 97.9347C34.9881 98.0877 34.9881 98.0877 34.9881 97.9347C34.9881 98.0877 34.9881 98.0877 34.9881 97.9347ZM34.9881 101.148C34.9881 101.148 34.9881 101.301 34.9881 101.148V101.148Z" fill="#04E0E0" />
        <path d="M52.4058 56.1595C51.6419 56.3125 51.0307 56.6185 50.4196 56.9246C49.1973 57.3836 48.2806 58.3018 47.3638 59.2199C46.4471 60.138 45.6832 61.3622 45.072 62.4334C42.6275 67.1771 42.4747 73.451 45.836 77.7356C45.9888 77.8887 46.1415 78.0417 46.2943 78.0417C46.4471 78.0417 46.7527 78.0417 46.9055 77.8887C47.2111 77.7356 47.5166 77.1236 47.211 76.8175C46.7527 76.2054 46.2943 75.4403 45.9888 74.6752C45.6832 73.7571 45.3776 72.8389 45.2248 71.9208C45.072 70.6966 45.072 69.6254 45.2248 68.4013C45.3776 67.1771 45.6832 66.1059 46.1415 65.0348C46.5999 63.9636 47.0583 63.0455 47.8222 62.1273C48.4333 61.5152 49.0445 60.9032 49.6556 60.2911C50.2668 59.832 50.8779 59.526 51.4891 59.2199C52.1002 58.9139 52.7114 58.7608 53.3225 58.7608C53.9337 58.7608 54.6976 58.7608 55.3087 58.7608C56.2255 58.9139 57.1422 59.2199 57.9061 59.526C58.2117 59.679 58.8228 59.526 59.1284 59.3729C59.434 59.2199 59.7395 58.9139 59.8923 58.4548C60.0451 57.9957 59.8923 57.6897 59.7395 57.2306C59.5868 57.0776 59.5868 57.0776 59.434 56.9246C59.2812 56.7715 58.9756 56.6185 58.8228 56.4655C57.4477 55.8534 56.0727 55.5474 54.6976 55.5474C53.6281 55.8534 53.0169 56.0064 52.4058 56.1595Z" fill="#04E0E0" />
        <path d="M139.494 33.2061C138.577 33.2061 137.813 33.3591 136.897 33.5121C133.383 34.1242 130.174 35.8074 128.035 38.5618C126.966 39.786 126.202 41.3163 125.438 42.8465C124.827 44.0707 124.215 45.4479 123.757 46.672C123.299 46.06 122.84 45.6009 122.382 45.1418C121.465 44.2237 120.243 43.4586 119.173 42.6935C116.882 41.3163 114.132 40.5511 111.534 40.2451C108.937 39.939 106.339 40.3981 104.048 41.4693C101.603 42.6935 99.7696 44.6827 98.5473 47.1311C98.3945 47.4372 98.5473 47.7432 98.7001 47.8962C99.0056 48.0492 99.3112 47.8962 99.464 47.7432C99.7696 46.9781 100.228 46.366 100.686 45.7539C101.145 45.1418 101.756 44.5297 102.367 43.9176C103.131 43.3055 103.895 42.8465 104.659 42.5404C105.575 42.0814 106.645 41.9283 107.562 41.6223C108.784 41.4693 110.006 41.4693 111.229 41.6223C112.756 41.7753 114.132 42.2344 115.507 42.6935C116.729 43.1525 117.951 43.9176 119.021 44.6828C120.09 45.4479 121.007 46.366 121.771 47.2841L121.618 47.1311C122.076 47.7432 122.535 48.5083 122.993 49.1204C123.146 49.4264 123.451 49.5795 123.757 49.5795C124.063 49.5795 124.368 49.4264 124.521 49.1204C125.285 47.8962 125.896 46.366 126.507 45.1418C127.118 43.7646 127.882 42.5404 128.646 41.3163C129.257 40.3981 130.021 39.633 130.785 39.0209C131.702 38.4088 132.619 37.7967 133.535 37.3377C134.605 36.8786 135.674 36.5725 136.744 36.4195C138.119 36.2665 139.341 36.1135 140.716 36.2665C141.786 36.4195 143.008 36.7256 143.925 37.0316C144.689 37.3377 145.453 37.7967 146.217 38.2558C146.828 38.7149 147.439 39.1739 147.897 39.786C148.356 40.3981 148.661 41.0102 148.967 41.6223C149.12 41.9283 149.272 42.3874 149.425 42.6935C149.731 43.4586 150.495 43.9176 151.259 43.7646C152.023 43.4586 152.481 42.6935 152.328 41.9283C152.023 41.1632 151.717 40.3981 151.411 39.633C150.953 38.8679 150.495 38.2558 149.884 37.4907C149.425 36.8786 148.814 36.4195 148.203 36.1135C147.592 35.6544 146.828 35.1953 146.064 34.7363C144.689 34.1242 143.008 33.6651 141.48 33.5121C140.716 33.3591 140.105 33.3591 139.341 33.3591C139.647 33.2061 139.647 33.2061 139.494 33.2061ZM148.203 39.48C148.356 39.48 148.356 39.633 148.203 39.48C148.356 39.633 148.356 39.48 148.203 39.48Z" fill="#04E0E0" />
        <path d="M148.814 50.3447C148.814 51.2628 149.578 51.8749 150.342 51.8749C151.106 51.8749 151.87 51.1098 151.87 50.3447C151.87 49.4265 151.106 48.8145 150.342 48.8145C149.425 48.8145 148.661 49.5796 148.814 50.3447Z" fill="#04E0E0" />
        <path d="M177.843 66.5649C176.927 66.5649 176.01 66.718 175.246 66.871C174.788 67.024 174.482 67.177 174.329 67.4831C174.024 67.7891 174.024 68.2482 174.024 68.5542C174.024 69.0133 174.329 69.3193 174.635 69.6254C174.94 69.7784 175.399 70.0845 175.704 69.9314C176.621 69.7784 177.538 69.6254 178.455 69.4724C179.219 69.4724 179.83 69.6254 180.441 69.7784C181.052 69.9314 181.51 70.2375 182.121 70.5435C182.58 70.8496 183.038 71.3086 183.497 71.6147C184.108 72.2268 184.566 72.9919 185.024 73.757C185.636 74.9812 186.094 76.2054 186.552 77.4295V77.2765V77.4295V77.5826V77.4295C187.011 79.4188 187.316 81.5612 187.316 83.5505C187.316 83.3974 187.316 83.3974 187.316 83.2444C187.316 85.3867 187.011 87.6821 186.552 89.8244C186.247 91.2016 185.636 92.4258 185.024 93.65C184.872 93.956 184.719 94.109 184.566 94.4151C184.26 94.8741 184.26 95.4862 184.719 95.7923C185.177 96.0983 185.788 96.0983 186.094 95.6392C187.316 93.803 188.233 91.6607 188.691 89.5183C189.302 87.07 189.455 84.6216 189.455 82.0202C189.455 79.5719 188.997 76.9705 188.233 74.6751C187.469 72.5328 186.247 70.3905 184.413 68.8603C183.191 67.7891 181.816 67.177 180.288 66.871C179.524 66.718 178.76 66.5649 177.843 66.5649ZM181.969 70.3905C181.969 70.3905 182.121 70.3905 181.969 70.3905C182.121 70.3905 181.969 70.3905 181.969 70.3905ZM186.552 89.8244C186.552 89.9774 186.552 89.9774 186.552 90.1304C186.552 89.9774 186.552 89.8244 186.552 89.8244ZM186.705 77.4295C186.705 77.2765 186.705 77.2765 186.705 77.4295C186.705 77.2765 186.705 77.2765 186.705 77.4295Z" fill="#04E0E0" />
        <path d="M123.91 70.0845C123.604 70.2375 123.604 70.3905 123.604 70.6966C124.063 73.298 125.132 75.5933 126.966 77.4296C128.646 79.1128 130.785 80.184 133.077 80.643C135.369 81.1021 137.813 80.643 139.8 79.5719C140.258 79.2658 140.869 78.8068 141.327 78.5007C141.786 78.0417 142.244 77.4296 142.703 76.9705C143.161 76.5114 143.466 75.8993 143.619 75.2872C143.925 74.5221 144.23 73.757 144.383 72.9919C144.536 72.2268 144.23 71.4617 143.466 71.3087C143.161 71.1556 142.703 71.3087 142.397 71.4617C142.091 71.6147 141.786 71.9207 141.786 72.2268C141.633 72.9919 141.48 73.757 141.175 74.3691C140.869 74.9812 140.564 75.7463 140.105 76.2054C139.8 76.6644 139.341 77.1235 138.883 77.4296C138.272 77.8886 137.813 78.1947 137.202 78.5007C136.591 78.8068 135.98 78.9598 135.216 78.9598C134.452 79.1128 133.688 78.9598 132.924 78.9598C132.924 78.9598 132.924 78.9598 133.077 78.9598C133.077 78.9598 133.077 78.9598 132.924 78.9598H132.771C132.771 78.9598 132.771 78.9598 132.924 78.9598C132.007 78.8068 131.244 78.5007 130.327 78.1947C129.563 77.8886 128.646 77.4296 128.035 76.8175C128.035 76.8175 128.188 76.8175 128.188 76.9705C127.577 76.3584 126.966 75.7463 126.354 75.1342C125.896 74.3691 125.438 73.757 125.132 72.8389V72.9919C124.827 72.2268 124.521 71.3087 124.521 70.3905C124.368 70.2375 124.215 70.0845 123.91 70.0845ZM135.522 78.8068H135.369C135.369 78.8068 135.369 78.8068 135.522 78.8068Z" fill="#04E0E0" />
        <path d="M193.886 117.368C193.886 118.439 193.886 119.358 193.733 120.276C193.733 120.276 193.733 120.276 193.733 120.123C193.58 121.041 193.428 121.959 193.122 123.03C192.817 123.948 192.511 125.019 192.053 125.938C191.289 127.621 190.525 128.998 189.455 130.528C188.539 131.599 187.622 132.671 186.4 133.589C184.872 134.66 183.344 135.578 181.663 136.343C180.288 136.955 178.913 137.261 177.385 137.72C176.621 137.873 176.316 138.638 176.468 139.404C176.621 140.169 177.385 140.475 178.149 140.322C180.594 139.71 183.038 138.638 185.177 137.108C186.247 136.343 187.163 135.578 188.08 134.66C188.997 133.742 189.761 132.824 190.525 131.752C191.9 129.763 192.969 127.621 193.58 125.172C194.344 122.724 194.65 119.97 194.497 117.368C194.497 117.215 194.344 116.909 194.039 116.909C194.192 116.909 193.886 117.215 193.886 117.368ZM192.205 125.784C192.205 125.784 192.205 125.938 192.205 125.784C192.205 125.938 192.205 125.784 192.205 125.784Z" fill="#04E0E0" />
        <path d="M53.1697 135.119C52.8642 135.272 52.5586 135.578 52.7114 135.884C53.017 137.414 53.6281 138.792 54.2392 140.169C54.8504 141.546 55.7671 142.77 56.8366 143.841C58.8228 146.137 61.4202 147.82 64.1704 149.044C66.9205 150.268 69.9763 150.727 73.032 150.421C73.7959 150.268 74.5598 150.268 75.3238 149.962C76.0877 149.809 76.8516 149.503 77.6156 149.197C79.1434 148.585 80.3657 147.667 81.588 146.443C82.1992 145.984 82.1992 144.913 81.588 144.454C80.9769 143.841 80.0602 143.841 79.6018 144.454C79.1434 144.913 78.6851 145.372 78.0739 145.831C77.31 146.443 76.3933 146.902 75.4766 147.361C74.4071 147.82 73.1848 148.126 72.1153 148.279C70.893 148.432 69.5179 148.432 68.2956 148.279C66.7677 148.126 65.3927 147.667 64.0176 147.055C62.6425 146.443 61.2674 145.678 60.0451 144.76L60.1979 144.913C58.9756 143.841 57.7533 142.77 56.6838 141.546C55.9199 140.475 55.156 139.251 54.6976 138.027V138.18C54.392 137.261 54.0865 136.496 53.9337 135.578C53.9337 135.272 53.6281 135.119 53.3225 135.119C53.3225 135.119 53.3225 135.119 53.1697 135.119ZM72.2681 148.432H71.9625C71.9625 148.432 72.1153 148.432 72.2681 148.432Z" fill="#04E0E0" />
        <path d="M103.589 198.011C103.589 198.776 104.353 199.541 105.117 199.541C105.881 199.541 106.645 198.776 106.645 198.011C106.645 197.246 105.881 196.481 105.117 196.481C104.353 196.481 103.589 197.093 103.589 198.011Z" fill="#04E0E0" />
        <path d="M107.714 202.755C107.714 203.367 108.173 203.826 108.784 203.826C109.395 203.826 109.854 203.367 109.854 202.755C109.854 202.143 109.395 201.684 108.784 201.684C108.173 201.684 107.714 202.143 107.714 202.755Z" fill="#04E0E0" />
        <path d="M206.567 94.4149C206.567 95.027 207.026 95.4861 207.637 95.4861C208.248 95.4861 208.706 95.027 208.706 94.4149C208.706 93.8028 208.248 93.3438 207.637 93.3438C207.026 93.3438 206.567 93.8028 206.567 94.4149Z" fill="#04E0E0" />
        <path d="M69.3651 39.174C69.3651 39.7861 69.8234 40.2452 70.4346 40.2452C71.0457 40.2452 71.5041 39.7861 71.5041 39.174C71.5041 38.562 71.0457 38.1029 70.4346 38.1029C69.8234 37.9499 69.3651 38.562 69.3651 39.174Z" fill="#04E0E0" />
        <path d="M87.0883 56.0063C86.3243 56.0063 85.7132 56.1594 85.1021 56.3124C84.0325 56.7715 82.963 57.6896 82.5047 59.0668C82.1991 59.8319 82.0463 60.597 81.8935 61.5152C81.7407 62.5863 81.7407 63.8105 81.8935 65.0347C82.0463 66.2589 82.3519 67.483 82.8103 69.0133C82.963 69.6254 83.2686 70.2375 83.5742 70.8495C82.8103 70.0844 82.0463 69.4723 81.2824 68.8603C79.449 67.33 77.7683 66.1058 76.0876 65.0347C74.8654 64.2696 73.1847 63.1984 71.3513 62.5863C70.5873 62.2803 69.9762 62.1273 69.2123 62.1273C69.0595 62.1273 68.9067 62.1273 68.7539 62.1273C68.6011 62.1273 68.4483 62.1273 68.2955 62.1273C67.99 62.1273 67.6844 62.2803 67.3788 62.2803C66.9205 62.4333 66.3093 62.7393 65.851 63.1984C65.3926 63.6575 64.9342 64.2696 64.6287 64.8817C64.3231 65.4938 64.1703 66.4119 64.0175 67.33C63.8647 68.5542 63.8647 69.7784 64.0175 70.6965C64.1703 73.2979 64.7814 76.0523 66.1565 79.1128C66.6149 80.0309 66.9205 80.949 67.3788 81.7142C66.9205 81.4081 66.4621 80.949 66.0037 80.643C65.2398 80.0309 64.3231 79.5718 63.5592 79.1128C62.7952 78.8067 62.1841 78.5007 61.4201 78.1946C60.1979 78.0416 59.5867 78.0416 58.8228 78.0416C58.0588 78.0416 57.4477 78.1946 56.8366 78.5007C55.6143 78.9597 54.6975 80.0309 53.9336 81.7142C53.1697 83.3974 52.8641 85.5397 52.8641 87.8351C53.0169 89.9774 53.4752 92.1197 54.392 94.7211C55.1559 97.0164 56.3782 99.4648 57.9061 102.066C59.2811 104.515 60.9618 106.963 62.948 109.717L63.1008 110.023L63.4064 110.482C62.7952 109.87 62.1841 109.411 61.4201 108.952C60.1979 108.034 58.9756 107.269 57.7533 106.504C56.8365 106.045 55.9198 105.586 55.0031 105.433C54.6975 105.28 54.392 105.28 54.0864 105.28C53.628 105.28 53.3225 105.28 53.0169 105.433C52.5585 105.586 51.9474 106.045 51.7946 106.504C51.489 106.963 51.3362 107.575 51.3362 108.34C51.3362 109.105 51.3362 109.717 51.489 110.635C51.6418 111.707 51.9474 112.625 52.253 113.39C52.5585 114.308 52.8641 115.379 53.3225 116.45C54.0864 118.44 55.0031 120.429 56.0726 122.877C57.1421 124.867 58.0588 126.703 59.1283 128.539C59.5867 129.457 60.1979 130.222 60.6562 130.987C61.7257 132.671 62.948 134.507 64.3231 136.496C69.2123 143.535 74.8654 150.421 80.9768 157.154C86.7827 163.428 93.1997 169.702 100.075 175.517C103.436 178.271 106.798 181.179 110.465 183.78C113.215 185.923 116.118 188.065 119.021 190.054L121.465 191.89C128.341 196.94 135.522 202.296 142.091 208.57C144.078 210.559 146.064 212.702 148.356 215.303C150.495 217.751 152.634 220.2 154.62 222.801C158.898 228.157 162.565 233.36 165.773 238.562C166.384 239.634 166.996 240.705 167.607 241.623C167.607 241.623 167.607 241.776 167.76 241.776C167.76 241.929 167.76 241.929 167.76 242.082C167.76 242.541 168.065 242.847 168.523 242.847C171.426 242.694 174.329 241.929 177.385 240.858C180.288 239.787 183.191 238.256 186.399 236.267C189.302 234.431 192.053 232.288 195.108 229.84C197.858 227.545 200.456 224.943 203.053 222.036C205.956 218.822 208.706 215.303 211.151 211.63C213.443 207.958 215.276 204.744 216.498 201.531C216.498 201.378 216.651 201.225 216.651 201.072C216.804 201.072 216.804 200.919 216.957 200.919C217.262 200.613 217.11 200.154 216.804 199.848C214.512 198.011 212.22 196.022 209.929 193.88L210.081 194.033C207.178 191.278 204.581 188.218 202.136 185.157C199.845 182.25 197.706 179.037 195.567 175.67L195.719 175.823C191.594 168.631 188.233 160.98 185.941 152.717C184.872 148.585 183.955 144.453 183.344 140.322C183.191 139.251 183.038 138.333 183.038 137.261C183.038 136.802 182.885 136.19 182.885 135.731C182.885 135.119 182.733 134.507 182.733 133.895C182.427 131.753 182.121 129.61 181.663 127.315C180.899 123.642 179.677 119.817 177.996 115.685C176.621 112.319 175.246 109.105 173.718 105.892L172.954 104.208C172.038 102.219 171.121 100.077 170.204 98.0876C169.746 97.1694 169.44 96.0983 168.982 95.0271C168.676 94.109 168.371 93.0378 167.912 92.1197C167.454 90.8955 167.148 89.8244 166.69 88.6002C165.926 86.4579 165.009 84.0095 163.787 81.5611C163.176 80.337 162.565 79.4188 161.954 78.6537C161.343 77.7356 160.731 77.1235 159.967 76.5114C159.203 75.8993 158.44 75.5932 157.676 75.4402C157.523 75.4402 157.217 75.4402 157.064 75.4402C156.453 75.4402 155.842 75.5932 155.078 75.8993C154.009 76.3584 153.092 77.2765 152.481 77.8886C151.564 78.8067 150.8 80.0309 150.189 81.4081C149.578 82.6323 149.12 83.8565 148.814 85.5397C148.508 86.9169 148.356 88.2941 148.203 90.1304C148.05 93.0378 148.356 96.4043 149.12 100.077C149.884 104.208 151.259 108.646 153.092 113.696C153.856 115.838 154.773 118.134 155.842 120.276C150.8 113.849 145.3 107.269 139.494 100.842C136.591 97.6285 133.383 94.109 129.868 90.4364C128.188 88.7532 126.507 87.0699 124.827 85.3867C124.215 84.7746 123.604 84.1625 122.993 83.5504L121.924 82.4793L121.465 82.0202C119.479 80.0309 117.493 77.8886 115.354 75.8993C111.534 72.2267 108.173 69.1663 104.964 66.4119C102.978 64.7286 101.145 63.3514 99.3112 61.9742C97.4778 60.597 95.6443 59.5259 93.9637 58.4547C92.283 57.5366 90.6024 56.9245 89.0745 56.4654C88.3106 56.1594 87.6994 56.0063 87.0883 56.0063ZM95.186 84.6216C95.0332 84.4686 94.7276 84.1625 94.5748 84.0095C94.1165 83.5504 93.8109 83.0914 93.3525 82.6323C93.9637 83.2444 94.5748 84.0095 95.186 84.6216Z" fill="#FFB39C" />
        <path d="M51.9474 106.351C51.6419 106.963 51.4891 107.575 51.4891 108.187C51.4891 108.799 51.4891 109.564 51.6419 110.635C51.7947 111.707 52.1002 112.778 52.4058 113.543C52.7114 114.461 53.017 115.532 53.4753 116.603C54.2392 118.593 55.156 120.582 56.2255 123.03C57.1422 125.02 58.2117 126.856 59.2812 128.692C59.7396 129.61 60.3507 130.375 60.8091 131.14C61.8786 132.824 63.1009 134.66 64.4759 136.649C69.3651 143.688 75.0182 150.574 81.1297 157.307C86.9356 163.581 93.3526 169.855 100.228 175.67C103.436 178.424 106.951 181.179 110.617 183.933C113.215 185.923 115.965 187.912 118.257 189.595L119.021 190.207L121.465 192.043C128.341 197.093 135.674 202.449 142.091 208.723C144.536 211.018 146.522 213.161 148.508 215.609C150.648 217.904 152.787 220.506 154.773 223.107C159.204 228.463 162.718 233.666 165.926 238.868C166.537 239.94 167.148 241.011 167.76 241.929C167.76 241.929 167.76 242.082 167.912 242.082C167.912 242.082 167.912 242.235 167.912 242.388C167.912 242.847 168.218 243.153 168.676 243.153C171.579 243 174.482 242.235 177.538 241.164C178.149 241.011 178.607 240.705 179.219 240.552C177.385 237.644 175.552 234.89 173.565 232.288C169.287 226.474 164.704 220.812 159.815 215.456C159.815 215.456 159.815 215.456 159.815 215.609C157.828 213.314 155.689 211.171 153.55 208.876C151.717 207.04 149.731 205.203 147.897 203.367C143.925 199.695 139.952 196.328 135.827 192.962C124.827 184.086 113.215 175.823 102.061 167.254C96.5611 162.969 91.0608 158.531 85.7133 153.788C80.5185 149.197 75.6294 144.3 71.1985 139.098C66.7677 133.895 62.6425 128.233 59.2812 122.418C57.6005 119.358 56.0727 116.297 54.6976 113.237C53.7809 110.941 52.8642 108.799 52.1002 106.504C52.1002 106.045 51.9474 106.198 51.9474 106.351Z" fill="#F3AB95" />
        <path d="M64.0175 110.635C63.8647 110.788 63.712 110.941 63.8647 111.094C66.3093 113.849 68.6011 116.756 70.8929 119.511C73.3375 122.418 75.7821 125.173 78.2267 127.927C80.6713 130.681 83.2686 133.283 86.0188 135.731C88.7689 138.332 91.6719 140.628 94.7276 142.77C94.8804 142.923 95.0332 142.923 95.186 142.923C95.3387 142.923 95.4915 142.77 95.6443 142.77C95.7971 142.464 95.7971 142.158 95.6443 141.852C93.6581 140.322 91.6719 138.792 89.6857 137.261C87.6994 135.578 85.866 133.895 83.8798 132.059C80.2129 128.539 76.6988 124.713 73.3375 121.041C71.8096 119.358 70.4346 117.674 68.9067 115.991C67.3788 114.308 65.851 112.472 64.3231 110.788C64.1703 110.635 64.1703 110.635 64.0175 110.635C64.0175 110.635 64.1703 110.482 64.0175 110.635ZM73.4903 121.041C73.4903 120.888 73.3375 120.888 73.4903 121.041C73.3375 120.888 73.3375 120.888 73.4903 121.041Z" fill="#E9A48F" />
        <path d="M68.2956 82.4794C68.1428 82.6324 68.1428 82.7854 68.1428 82.9385C69.3651 84.9277 70.7402 86.917 72.1152 88.7533C73.4903 90.7426 74.8654 92.5789 76.3933 94.4152C79.2962 98.0877 82.3519 101.76 85.5604 105.28V105.433C88.9217 109.105 92.283 112.778 95.6443 116.297C99.1584 119.97 102.52 123.489 106.187 126.856C106.492 127.162 107.103 127.162 107.409 126.703C107.562 126.55 107.714 126.244 107.562 126.091C107.562 125.938 107.562 125.938 107.562 125.785C107.562 125.632 107.409 125.479 107.256 125.326C105.27 123.183 103.131 121.041 100.992 118.899C99.9224 117.828 98.8529 116.909 97.7834 115.838C96.7139 114.767 95.6443 113.696 94.4221 112.625C90.144 108.34 85.866 104.056 81.8936 99.6179C81.8936 99.6179 81.8936 99.6179 82.0464 99.7709C79.6018 97.0165 77.31 94.2621 75.0182 91.3547C72.7264 88.4473 70.5874 85.3868 68.4484 82.3264C68.4484 82.1733 68.2956 82.1733 68.1428 82.1733C68.4484 82.3264 68.2956 82.3264 68.2956 82.4794Z" fill="#E9A48F" />
        <path d="M84.0326 70.8493C83.8798 71.0023 83.8798 71.1554 83.8798 71.3084C85.5604 73.7567 87.2411 76.0521 88.9217 78.3474C90.7552 80.7958 92.5886 83.0911 94.4221 85.3865C96.2555 87.6818 98.0889 89.8241 100.075 91.9664C102.061 94.2618 104.048 96.4041 106.034 98.5464L105.881 98.3934C108.02 100.842 110.312 103.137 112.451 105.585C114.743 107.881 116.882 110.329 119.326 112.624C119.785 113.084 120.549 112.931 121.007 112.471C121.16 112.318 121.312 112.012 121.312 111.706C121.312 111.4 121.16 111.094 120.854 110.941C119.021 109.105 117.034 107.269 115.201 105.432C113.215 103.596 111.381 101.607 109.395 99.7706C107.562 97.9343 105.728 96.098 103.895 94.2618C102.061 92.2725 100.228 90.4362 98.3945 88.4469C95.9499 85.6925 93.5053 82.7851 91.2135 79.8776C88.9217 76.9702 86.6299 73.9098 84.4909 70.8493C84.4909 70.6963 84.3381 70.6963 84.1854 70.6963C84.1854 70.6963 84.1854 70.6963 84.0326 70.8493Z" fill="#E9A48F" />
    </g>
    <defs>
        <clipPath id="clip0">
            <rect width="244" height="243" fill="white" />
        </clipPath>
    </defs>
</svg>
