<svg width="213" height="223" viewBox="0 0 213 223" fill="none" xmlns="http://www.w3.org/2000/svg">
    <g clip-path="url(#clip0)">
        <path d="M106.429 213.477C165.208 213.477 212.858 165.689 212.858 106.739C212.858 47.7885 165.208 0 106.429 0C47.6499 0 0 47.7885 0 106.739C0 165.689 47.6499 213.477 106.429 213.477Z" fill="#FEFEFE" />
        <path d="M119.184 17.9083C122.585 17.9083 126.269 18.1925 129.812 18.7611C136.19 19.756 142.567 22.03 148.094 25.1568C150.786 26.7203 153.479 28.7101 156.03 30.842C158.297 32.8318 160.565 35.248 162.549 37.9484C164.391 40.3646 165.95 42.9229 167.367 45.7655C168.076 47.0447 168.643 48.466 169.351 50.0294C169.776 51.0243 170.06 51.877 170.485 52.8719C170.768 53.4405 170.91 54.1511 171.194 54.7196C172.186 57.2779 173.461 59.552 175.02 61.5418C176.579 63.6737 178.563 65.5214 181.255 67.5112C182.531 68.5061 183.806 69.501 185.224 70.3538C185.932 70.9223 186.782 71.4908 187.491 71.9172C190.042 73.7649 192.451 75.6125 194.435 78.0287C195.427 79.3079 196.277 80.587 196.844 81.8662C197.553 83.2875 197.836 84.8509 197.836 86.4143C197.836 87.6935 197.411 89.1148 196.703 90.6782C196.419 91.2467 196.136 91.8152 195.852 92.2416C195.427 92.9522 195.144 93.6629 194.719 94.3735L194.86 94.2314L194.719 94.3735C194.435 94.942 194.293 95.6527 194.152 96.2212C194.152 96.7897 194.152 97.3582 194.152 97.9268C194.293 98.7795 194.435 99.4902 194.719 100.343C195.427 102.048 196.419 103.612 197.411 105.175C198.261 106.597 199.253 108.018 199.82 109.439C201.238 112.566 201.663 116.403 200.954 121.094C200.387 124.789 199.112 128.627 196.986 132.748C195.427 135.875 193.443 138.86 191.034 141.702C186.782 146.677 181.255 151.083 174.17 155.062C168.501 158.189 162.124 160.89 154.329 163.59C153.479 163.874 152.77 164.159 151.92 164.301C151.778 164.301 151.778 164.443 151.637 164.443C150.22 165.011 148.661 165.296 146.677 165.722C144.976 166.006 143.134 166.149 141.15 166.291C139.449 166.433 137.748 166.433 135.481 166.433C134.206 166.433 132.93 166.433 131.513 166.433H129.812H129.104C127.97 166.433 126.978 166.433 125.844 166.433C124.852 166.433 123.86 166.433 122.868 166.433H122.443C120.743 166.433 119.042 166.433 117.341 166.291C108.13 166.006 99.0599 165.012 90.4152 163.448C85.3134 162.453 80.6367 161.458 76.2435 160.037C71.4251 158.616 67.0319 156.91 63.0639 154.92C54.2774 150.514 48.3253 144.971 45.3493 138.433C44.499 136.586 43.9321 134.596 43.507 132.748C43.0818 130.758 42.9401 128.484 43.0818 126.352C43.2235 124.078 43.6487 121.662 44.2156 119.246C44.3573 118.535 44.6407 117.967 44.7824 117.398C45.0659 116.688 45.3493 115.977 45.7744 115.124C46.483 113.703 47.3333 112.424 48.1836 111.145L48.6088 110.576C49.7425 109.013 50.8762 107.449 51.5848 105.602C51.8683 104.749 52.1517 103.896 52.2934 103.043C52.2934 102.333 52.2934 101.764 52.2934 101.054C52.1517 100.485 52.01 99.7744 51.8683 99.2059C51.7265 98.9217 51.5848 98.6374 51.4431 98.3531L51.3014 97.9268C51.1597 97.5004 50.8762 97.074 50.7345 96.5055C50.1677 94.7999 49.6008 93.0944 49.3174 91.531C49.0339 89.9675 48.7505 88.262 48.7505 86.6986C48.7505 85.1352 48.8922 83.5717 49.3174 81.8662C50.0259 78.7394 51.5848 75.6125 53.994 72.3436C55.2695 70.638 56.6866 68.9325 57.9621 67.3691C58.9541 66.232 59.9461 64.9529 60.9381 63.6737C61.6467 62.6788 62.3553 61.6839 62.9222 60.689C63.6307 59.552 64.1976 58.2728 64.9062 56.8516C65.8982 54.5775 66.6068 52.1613 67.3154 49.7451C67.7405 48.1817 68.3074 46.4762 68.8742 44.9127C70.008 41.6438 71.5669 38.5169 73.5509 35.6744C75.6766 32.6897 78.0858 30.2735 80.6367 28.4258C81.9122 27.573 83.4711 26.7203 85.0299 26.1517C86.4471 25.5832 88.1477 25.299 89.8483 25.299C89.99 25.299 90.1317 25.299 90.1317 25.299C90.982 25.299 91.974 25.4411 92.9661 25.5832C96.7924 21.4615 102.461 18.9032 109.689 17.624C113.09 18.1925 116.066 17.9083 119.184 17.9083Z" fill="#3A0241" />
        <path d="M105.862 34.3951C108.413 34.3951 111.106 34.5372 113.657 34.8215C113.657 34.8215 113.657 34.8215 113.798 34.8215C116.208 35.1057 118.617 35.6743 121.026 36.2428C123.435 36.9534 125.844 37.8062 128.112 38.659C128.112 38.659 128.112 38.659 127.97 38.659C130.379 39.6539 132.647 40.7909 134.914 42.2122C137.182 43.4913 139.307 45.0548 141.433 46.6182C145.543 49.745 149.086 53.4403 152.204 57.5621C155.038 61.2574 157.589 65.3792 159.431 69.643C159.715 70.2115 159.998 70.9222 160.14 71.4907C160.281 72.0592 160.565 72.6277 160.707 73.1962C160.99 74.1911 161.132 75.186 161.273 76.1809C161.415 76.8916 161.415 77.6022 161.557 78.3129C161.84 81.5818 161.699 84.8508 161.84 88.1198C161.982 91.2466 162.265 94.2313 163.541 97.216C164.108 98.4952 164.816 99.7743 165.808 100.911C166.375 101.48 166.942 102.048 167.509 102.617C168.218 103.043 168.784 103.612 169.493 103.896C171.052 104.607 172.611 105.175 174.17 105.602C175.87 106.028 177.429 106.596 179.13 107.165C179.697 107.449 180.263 107.734 180.83 108.018C181.256 108.302 181.681 108.586 182.106 108.871C182.531 109.155 182.814 109.439 183.098 109.723C183.381 110.008 183.665 110.292 183.948 110.718C184.232 111.145 184.515 111.571 184.798 111.997C184.94 112.424 185.224 112.85 185.365 113.134C185.365 113.134 185.365 113.134 185.365 112.992C185.649 113.561 185.79 114.129 185.932 114.556C186.074 115.124 186.216 115.693 186.216 116.261C186.357 116.972 186.357 117.825 186.357 118.535C186.357 119.388 186.357 120.099 186.216 120.951C186.216 120.951 186.216 120.951 186.216 120.809C186.074 121.662 185.932 122.515 185.649 123.226C185.507 123.936 185.224 124.647 184.94 125.357C184.94 125.357 184.94 125.357 184.94 125.215C184.657 125.926 184.232 126.637 183.806 127.347C183.381 127.916 182.956 128.626 182.531 129.195C180.83 131.327 178.846 133.175 176.721 135.022C175.729 135.875 174.595 136.87 173.603 137.865C172.611 138.86 171.619 139.855 170.768 140.85C169.918 141.987 169.068 143.124 168.359 144.403C167.792 145.54 167.367 146.677 166.8 147.814C166.234 149.093 165.808 150.514 165.525 151.936C165.1 153.357 164.816 154.92 164.533 156.342C164.25 157.621 164.108 158.9 164.108 160.179C160.99 161.458 157.731 162.737 154.188 163.874C153.337 164.159 152.629 164.443 151.778 164.585C151.637 164.585 151.637 164.727 151.495 164.727C150.078 165.296 148.519 165.58 146.535 166.006C144.976 166.291 143.134 166.433 141.008 166.575C139.307 166.717 137.465 166.717 135.339 166.717C134.347 166.717 133.355 166.717 132.363 166.717H131.371H129.671H128.962C128.112 166.717 127.403 166.717 126.553 166.717H125.703C124.711 166.717 123.719 166.717 122.727 166.717H122.301C120.601 166.717 118.9 166.717 117.2 166.575C107.988 166.291 98.9182 165.296 90.2735 163.732C85.1717 162.737 80.495 161.742 76.1018 160.321C71.2835 158.9 66.8903 157.194 62.9222 155.205C58.6707 153.073 55.1278 150.656 52.1517 148.098C52.01 146.819 52.01 145.682 52.01 144.403C52.01 142.839 52.1517 141.276 52.2934 139.712C52.5769 138.007 52.8603 136.301 53.2855 134.738C53.7106 133.032 54.2775 131.327 54.9861 129.763V129.906C55.6946 128.342 56.4032 126.779 57.2535 125.215C58.1038 123.794 58.9541 122.515 59.9461 121.378C60.7964 120.241 61.6467 119.246 62.497 118.109C63.6308 116.83 64.7645 115.408 65.7565 114.129C66.7485 112.708 67.7405 111.287 68.5908 109.723C69.2994 108.16 70.008 106.596 70.2914 104.891C70.7166 102.901 70.8583 100.911 71 98.7794C71 94.5155 70.5749 90.2517 70.1497 85.9878C70.008 83.8559 69.7246 81.724 69.7246 79.592C69.7246 78.455 69.7246 77.318 69.7246 76.3231C69.7246 75.3282 69.8663 74.3333 70.008 73.3384C70.008 73.3384 70.008 73.3384 70.008 73.4805C70.1497 71.9171 70.4332 70.4958 70.8583 68.9324C71 68.3639 71.2835 67.6532 71.4252 67.0847C71.992 65.5213 72.7006 63.9579 73.4092 62.5366C73.8344 61.5417 74.2595 60.6889 74.8264 59.8361C75.3932 58.9834 75.9601 58.1306 76.6687 57.2778L76.8104 57.1357C76.8104 56.9936 76.9521 56.9936 76.9521 56.8514C76.9521 56.7093 76.9521 56.7093 76.8104 56.5672C76.8104 56.5672 76.8104 56.4251 76.9521 56.4251C77.0938 56.2829 76.9521 55.9987 76.8104 55.9987H76.6687H76.527C76.3853 55.9987 76.2435 55.9987 76.2435 56.1408C75.9601 56.5672 75.8184 56.9936 75.535 57.42C75.1098 57.9885 74.8264 58.4149 74.5429 58.9834C74.6847 58.6991 74.8264 58.4149 74.9681 58.1306C74.9681 57.9885 75.1098 57.9885 74.9681 57.8463C74.9681 57.7042 74.8264 57.7042 74.8264 57.5621H74.6847C74.6847 57.5621 74.6847 57.5621 74.5429 57.5621H74.4012C74.8264 56.5672 75.1098 55.5723 75.535 54.5774V54.7195C75.9601 53.5825 76.527 52.5876 76.9521 51.4505C77.3773 50.5978 77.8024 49.6029 78.2276 48.7501C79.0779 47.1867 80.0699 45.6233 81.2036 44.0599C81.7705 43.3492 82.4791 42.4964 83.1877 41.7858C83.8962 41.0751 84.6048 40.3645 85.4551 39.796C86.1637 39.2275 87.014 38.659 87.7226 38.2326C88.5729 37.8062 89.4232 37.2377 90.4152 36.9534C90.4152 36.9534 90.4152 36.9534 90.2735 36.9534C91.2655 36.527 92.1158 36.2428 93.1078 35.9585C94.0998 35.6743 95.0919 35.5321 96.0839 35.39C97.0759 35.2479 98.0679 35.2479 99.0599 35.2479C99.9102 35.2479 100.902 35.39 101.753 35.39C103.17 35.5321 104.729 35.9585 106.146 36.3849C107.563 36.8113 108.838 37.2377 110.114 37.8062C115.782 40.2224 121.026 43.6335 126.695 46.1918C126.836 46.1918 126.836 46.1918 126.978 46.1918C127.12 46.1918 127.12 46.0497 127.262 46.0497C127.403 45.9075 127.261 45.6233 127.12 45.6233C124.002 44.202 121.168 42.6386 118.192 40.933C115.357 39.3696 112.381 37.8062 109.263 36.6692C107.563 35.9585 105.862 35.39 104.162 35.1057C102.461 34.6794 100.761 34.5372 99.0599 34.5372H98.9182H98.6348C100.902 34.253 103.028 34.1108 105.295 34.1108H105.862V34.3951ZM159.431 69.5009C159.431 69.643 159.431 69.643 159.431 69.5009C159.431 69.643 159.431 69.643 159.431 69.5009Z" fill="#2D0133" />
        <path d="M128.112 113.561C126.836 113.561 125.561 113.703 124.002 113.845C121.451 114.13 118.9 114.84 116.349 115.409C115.357 115.693 114.507 115.835 113.515 116.119C113.373 116.119 113.232 116.404 113.09 116.546C112.948 116.688 112.948 116.972 113.09 117.114C113.09 117.256 113.232 117.399 113.373 117.399C113.798 118.962 114.224 120.525 114.224 121.947C114.365 123.226 114.224 124.363 113.94 125.5V125.358C113.657 126.495 113.373 127.49 112.806 128.485L112.948 128.342C112.381 129.337 111.673 130.474 110.822 131.327C109.689 132.606 108.413 133.743 106.713 134.738C103.595 136.87 100.194 138.291 97.501 139.286C95.9421 139.855 94.2415 140.423 92.6826 141.134L91.4072 141.56C89.99 141.987 88.5728 142.555 87.1557 143.124C87.014 143.266 86.8722 143.408 86.7305 143.55C86.5888 143.692 86.5888 143.834 86.5888 143.977C86.7305 145.256 87.014 146.535 87.4391 147.672C87.8643 148.809 88.2894 149.804 88.8563 151.083C89.99 153.073 91.4072 154.921 93.2495 156.768C94.9501 158.332 96.9341 159.753 99.3433 161.032C101.469 162.169 103.878 163.164 106.571 164.017C111.389 165.58 116.774 166.291 122.301 166.433H122.868C125.277 166.433 127.545 166.291 129.812 166.007C132.222 165.722 134.489 165.154 136.473 164.443C138.032 163.875 139.733 163.164 141.433 162.311C143.275 161.316 145.118 160.037 146.818 158.616C148.519 157.195 150.078 155.631 151.212 153.926C151.778 153.073 152.345 152.22 152.912 151.225C153.337 150.372 153.762 149.377 154.188 148.24C154.329 148.24 154.471 148.098 154.471 148.098C154.754 147.814 154.754 147.388 154.471 147.103C153.196 145.966 151.92 144.971 150.645 143.834L150.361 143.55L148.519 142.129C147.81 141.56 147.102 140.992 146.393 140.423C144.126 138.576 141.717 136.444 139.733 134.17C138.457 132.748 137.465 131.185 136.615 129.622C135.906 128.058 135.339 126.353 135.056 124.647C134.772 122.657 134.631 120.525 134.772 118.109C134.914 117.256 134.914 116.404 135.056 115.551C135.056 115.124 134.914 114.84 134.489 114.698H134.347C134.206 114.698 134.206 114.698 134.064 114.698C132.363 114.272 130.521 113.987 128.679 113.845C128.82 113.561 128.395 113.561 128.112 113.561Z" fill="#FFB39C" />
        <path d="M124.002 113.845C121.451 114.129 118.758 114.84 116.491 115.408L116.208 115.551L115.782 115.693L113.657 116.119C113.515 116.119 113.232 116.403 113.232 116.545C113.09 116.688 113.09 116.972 113.232 117.114C113.232 117.256 113.373 117.398 113.515 117.398C113.94 118.962 114.365 120.525 114.365 121.946C114.507 123.226 114.365 124.363 114.082 125.5L114.224 125.357C114.224 125.642 114.082 125.784 114.082 126.068C114.932 126.352 115.782 126.494 116.633 126.637C117.766 126.779 118.9 126.921 120.034 126.921H119.892C121.168 126.921 122.585 126.921 123.86 126.779C124.994 126.637 126.269 126.494 127.403 126.21C128.679 125.926 130.096 125.5 131.371 124.931C132.647 124.363 133.922 123.794 135.198 123.226C135.339 123.226 135.339 123.083 135.481 123.083C135.339 121.52 135.339 119.814 135.481 118.109C135.623 117.256 135.623 116.403 135.764 115.551C135.764 115.124 135.623 114.698 135.198 114.698H135.056C134.914 114.698 134.914 114.698 134.914 114.698C133.214 114.271 131.371 113.987 129.529 113.845C129.104 113.845 128.82 113.845 128.395 113.845C126.836 113.561 125.561 113.561 124.002 113.845Z" fill="#F3AB95" />
        <path d="M48.8922 110.434H48.7505C48.6088 110.434 48.6088 110.434 48.467 110.576C48.467 110.576 48.467 110.576 48.3253 110.576C48.1836 110.576 48.1836 110.576 48.1836 110.576C45.2076 111.855 41.8064 112.708 37.8383 113.419C34.2954 113.987 30.7525 114.272 27.493 114.698C27.3513 114.698 27.2096 114.698 27.2096 114.84C26.7844 114.84 26.3593 115.124 26.3593 115.551C26.3593 119.246 26.2175 123.084 26.0758 126.637V127.774C25.9341 132.89 25.7924 137.439 25.7924 141.987C25.6507 154.494 26.2175 163.875 27.6347 172.544C28.485 177.803 29.477 182.493 30.8942 186.899C32.4531 191.732 34.2954 195.711 36.5628 199.265C37.6966 201.112 39.1137 202.818 40.5309 204.523C41.9481 206.087 43.507 207.508 45.3493 208.929C48.8922 211.63 53.002 213.477 57.5369 214.472C58.9541 214.757 60.5129 215.041 62.2135 215.325C63.489 215.467 64.6227 215.609 65.7565 215.609C66.6068 215.609 67.4571 215.609 68.1656 215.467C70.2914 215.183 72.2754 214.614 74.1177 213.762C74.968 213.335 75.8183 212.767 76.6686 212.056C77.3772 211.346 78.0858 210.635 78.7944 209.64C78.7944 209.64 78.9361 209.498 78.9361 209.356C79.3612 208.219 80.0698 207.224 80.7784 206.087C81.487 205.092 82.3373 203.955 83.1876 202.96C83.6127 202.534 83.8962 202.107 84.3213 201.539C84.8882 200.828 85.4551 200.117 85.8802 199.407C86.4471 198.696 86.8722 197.843 87.4391 196.848C89.1397 193.722 90.2734 189.884 90.982 185.762C91.5489 182.351 91.8323 178.514 91.6906 173.966C91.6906 171.976 91.5489 169.844 91.4072 167.996C91.4072 167.143 91.2654 166.149 91.2654 165.154C91.1237 164.159 91.1237 163.164 90.982 162.169C90.8403 160.89 90.5569 159.611 90.4151 158.189C90.1317 156.626 89.99 155.063 89.7066 153.641C89.2814 150.23 89.1397 147.814 89.4231 145.398C89.4231 144.829 89.5648 144.261 89.7066 143.692C89.7066 143.408 89.5648 143.124 89.4231 142.982C89.4231 142.839 89.4231 142.555 89.4231 142.413C89.2814 142.271 88.998 142.129 88.8563 142.129C88.7145 142.129 88.5728 142.129 88.4311 142.271C80.495 147.53 70.2914 154.636 61.9301 163.732C58.2455 148.667 54.5609 132.606 50.0259 111.429C49.4591 110.718 49.1756 110.434 48.8922 110.434Z" fill="#FF505D" />
        <path d="M27.493 114.556C27.3513 114.556 27.2096 114.556 27.2096 114.698C26.6427 114.698 26.3593 114.982 26.3593 115.409C26.3593 118.962 26.2175 122.373 26.0758 126.495V127.632C25.9341 133.175 25.7924 137.438 25.7924 141.844C25.6507 154.352 26.2175 163.732 27.6347 172.402C28.485 177.661 29.477 182.351 30.8942 186.757C32.4531 191.447 34.2954 195.569 36.5628 199.122C37.6966 200.97 39.1137 202.676 40.5309 204.381C41.9481 205.945 43.507 207.366 45.3493 208.787C48.8922 211.488 53.002 213.335 57.5369 214.33C58.9541 214.614 60.5129 214.899 62.2135 215.183C63.489 215.325 64.6227 215.467 65.7565 215.467C66.6068 215.467 67.3153 215.467 68.1656 215.325C70.2914 215.041 72.2754 214.472 74.1177 213.619C74.968 213.193 75.8183 212.625 76.6686 211.914C77.3772 211.203 78.0858 210.493 78.7944 209.498C78.7944 209.498 78.9361 209.356 78.9361 209.213C79.3612 208.076 80.0698 207.082 80.7784 205.945C81.487 204.807 82.3373 203.813 83.1876 202.818L83.3293 202.676L84.3213 201.396C84.8882 200.686 85.4551 199.975 85.8802 199.264C86.3054 198.554 86.8722 197.701 87.4391 196.706C89.1397 193.579 90.2734 189.742 90.982 185.62C91.5489 182.209 91.8323 178.372 91.6906 173.823C91.6906 171.834 91.5489 169.844 91.4072 167.854C91.4072 167.001 91.2654 166.006 91.2654 165.154C91.1237 164.159 91.1237 163.164 90.982 162.169C90.8403 160.89 90.5569 159.611 90.4151 158.189C90.4151 158.047 90.4151 157.905 90.2734 157.621C87.2974 160.748 84.463 164.017 81.7704 167.428C79.6447 170.27 77.5189 173.113 75.6766 176.24C74.8263 177.661 74.1177 179.082 73.5509 180.503C71.8503 184.341 70.2914 188.178 68.4491 191.874C67.3153 193.864 66.1816 195.996 64.7644 197.843C64.1976 198.696 63.489 199.407 62.7804 200.117C62.0718 200.686 61.3632 201.396 60.6547 201.823C59.9461 202.249 59.0958 202.533 58.2455 202.818C57.3952 202.96 56.5449 202.96 55.6946 202.818C54.7026 202.676 53.8523 202.249 53.002 201.823C51.8682 201.254 51.0179 200.544 50.0259 199.691C48.7505 198.554 47.6167 197.275 46.6247 195.995C45.491 194.574 44.499 193.011 43.6487 191.447C41.8064 188.321 40.3892 184.909 39.2555 181.498C38.1217 178.087 37.1297 174.676 36.2794 171.123C35.7125 168.991 35.2874 166.859 34.8622 164.727C34.4371 162.453 34.0119 160.179 33.7285 157.905C33.1616 153.499 32.7365 148.951 32.4531 144.403C32.1696 139.855 32.1696 135.307 32.1696 130.758C32.1696 125.215 32.3113 119.815 32.5948 114.271C30.6108 114.271 29.0519 114.414 27.493 114.556Z" fill="#E44753" />
        <path d="M32.4531 60.8311C32.0279 60.8311 31.6028 60.9732 31.1776 61.1153C30.8942 61.2574 30.6108 61.5417 30.3273 61.6838C30.0439 61.9681 29.9022 62.2523 29.6188 62.6787C29.0519 63.8158 28.9102 65.237 28.9102 66.3741C28.7685 67.6532 28.9102 69.0745 29.0519 70.7801C28.9102 70.2116 28.6267 69.643 28.485 69.0745C28.0599 67.7954 27.493 66.8005 26.9261 65.8056C26.3593 64.8107 25.7924 63.9579 25.2255 63.5315C24.8004 63.1051 24.0918 62.6787 23.0998 62.6787C22.2495 62.6787 21.3992 63.1051 20.8323 63.9579C20.2655 64.8107 20.1237 65.8056 20.1237 66.5162C20.1237 67.2268 20.1237 67.7954 20.1237 68.3639C20.1237 69.0745 20.2655 69.7852 20.5489 70.6379C20.8323 71.775 21.1158 72.7699 21.5409 74.1912C21.3992 73.9069 21.1158 73.6226 20.974 73.3384C20.2655 72.4856 19.4152 71.9171 18.7066 71.6328C18.5649 71.6328 18.4231 71.6328 18.1397 71.6328C17.4311 71.6328 16.7225 72.0592 16.2974 72.6277C15.8722 73.3384 15.5888 74.1912 15.7305 75.4703C15.8722 76.7495 16.1557 78.1708 16.5808 79.1657C17.006 80.4448 17.5728 81.724 17.998 82.861C18.2814 83.5717 18.7066 84.4244 18.99 85.1351C19.6986 86.6985 20.4072 88.1198 20.974 89.6832C23.3832 95.3683 24.6587 99.7743 25.2255 104.038C25.509 106.881 25.6507 109.581 25.2255 112.14C24.9421 114.414 24.3752 116.688 23.5249 118.82C23.3832 119.104 23.3832 119.388 23.3832 119.53C23.3832 119.672 23.5249 119.814 23.6667 119.957C26.2176 120.952 28.9102 121.52 31.6028 121.804C32.3114 121.804 33.0199 121.946 33.7285 121.946C34.4371 121.946 35.1457 121.946 35.8543 121.804C37.1297 121.662 38.5469 121.52 40.1058 121.236C45.9162 119.957 50.8762 116.972 54.1357 112.708C54.2774 112.566 54.2774 112.424 54.2774 112.282C54.2774 112.14 54.2774 111.855 54.2774 111.713C53.4271 110.008 52.4351 108.302 51.7265 106.454V106.312C49.6008 101.196 48.1836 96.079 47.475 90.8202C47.3333 89.6832 47.1916 88.5462 47.1916 87.4091C47.1916 86.5564 47.1916 85.4193 47.3333 84.2823V84.1402C47.6168 82.1504 48.0419 80.4448 48.6088 78.8814L48.7505 78.3129C48.8922 77.7444 49.1756 77.318 49.3174 76.7495C49.6008 75.8967 49.7425 75.0439 49.8842 74.3333C49.8842 73.6226 49.8842 72.912 49.6008 72.2014C49.3174 71.6328 48.8922 71.2065 48.4671 70.6379C48.0419 70.3537 47.6168 70.0694 47.1916 69.9273C46.9082 69.9273 46.7665 69.7852 46.483 69.7852C46.1996 69.7852 45.9162 69.7852 45.7744 69.7852C45.3493 69.9273 44.7824 70.0694 44.499 70.3537C43.9321 70.6379 43.507 71.0643 43.0818 71.3486C42.0898 72.2014 41.2395 73.1963 40.6726 74.1912C40.1058 75.0439 39.5389 75.8967 38.972 76.8916C38.972 75.6124 38.8303 74.4754 38.6886 73.3384C38.4052 70.7801 38.1217 68.2217 37.2714 65.5213C36.8463 64.2421 36.4211 63.3894 35.996 62.5366C35.7126 62.1102 35.4291 61.826 35.1457 61.5417C34.8623 61.2574 34.4371 60.9732 34.012 60.8311C33.1617 60.9732 32.7365 60.8311 32.4531 60.8311Z" fill="#04BFBF" />
        <path d="M46.483 69.9273C46.7665 70.4958 46.9082 71.0644 46.9082 71.6329C46.9082 72.3435 46.9082 73.0542 46.7665 73.7648C46.483 75.3282 46.0579 76.8916 45.6327 78.3129C45.491 78.7393 45.3493 79.1657 45.2076 79.5921C44.9241 80.4448 44.6407 81.2976 44.499 82.0083C44.3573 82.7189 44.2156 83.5717 44.0738 84.2823C43.9321 85.7036 43.7904 87.1249 43.7904 88.5462C43.7904 89.9675 43.9321 91.3888 44.0738 92.81C44.499 95.5105 45.0659 98.0688 45.7744 100.627C46.483 103.043 47.475 105.46 48.4671 107.876V107.734C49.3174 109.865 50.3094 111.855 51.3014 113.845C51.5848 114.271 51.7265 114.698 52.01 115.124C52.8603 114.271 53.5688 113.419 54.2774 112.566C54.4191 112.424 54.4191 112.282 54.4191 112.14C54.4191 111.997 54.4191 111.713 54.2774 111.571C53.4271 109.865 52.4351 108.16 51.7265 106.312L51.5848 106.17C49.4591 101.054 48.0419 95.9369 47.3333 90.6781C47.1916 89.5411 47.0499 88.4041 47.0499 87.267C47.0499 86.2721 47.0499 85.2772 47.1916 84.1402V83.9981C47.475 82.0083 47.9002 80.3027 48.4671 78.7393L48.6088 78.1708C48.7505 77.6023 49.0339 77.1759 49.1756 76.6074C49.4591 75.7546 49.6008 74.9018 49.7425 74.0491C49.7425 73.3384 49.7425 72.6278 49.4591 71.9171C49.1756 71.3486 48.7505 70.7801 48.3253 70.3537C47.9002 70.0695 47.475 69.7852 47.0499 69.6431C46.7665 69.9273 46.6247 69.9273 46.483 69.9273C46.3413 69.9273 46.483 69.9273 46.483 69.9273Z" fill="#03AFAF" />
        <path d="M21.5409 74.4756C21.3992 74.4756 21.2575 74.7598 21.2575 74.902C22.1078 77.3182 22.8164 79.8765 24.0918 82.1505C24.2336 82.2927 24.3753 82.4348 24.6587 82.2927C24.8004 82.1505 24.9421 82.0084 24.8004 81.7241C24.2336 80.8714 23.8084 79.8765 23.525 79.0237C22.9581 77.6024 22.533 76.1811 21.9661 74.7598C21.9661 74.6177 21.8244 74.4756 21.5409 74.4756C21.6827 74.4756 21.6827 74.4756 21.5409 74.4756ZM23.6667 79.0237C23.6667 79.0237 23.525 79.0237 23.6667 79.0237C23.525 79.0237 23.6667 79.0237 23.6667 79.0237Z" fill="#03AFAF" />
        <path d="M29.0519 71.775C29.1936 73.0541 29.477 74.4754 29.7605 75.7546C30.0439 77.0337 30.6108 78.3129 31.1776 79.4499C31.3193 79.5921 31.6028 79.7342 31.7445 79.5921C31.8862 79.5921 31.8862 79.4499 31.8862 79.3078C31.8862 79.1657 31.8862 79.0235 31.8862 79.0235C31.7445 78.5972 31.4611 78.1708 31.3193 77.8865C31.3193 77.8865 31.3193 77.8865 31.3193 78.0286C30.8942 77.1759 30.6108 76.181 30.3273 75.3282C30.0439 74.3333 29.9022 73.3384 29.7605 72.3435C29.7605 72.2014 29.7605 72.0592 29.7605 71.9171C29.7605 71.775 29.7605 71.775 29.6187 71.6329C29.6187 71.6329 29.477 71.4907 29.3353 71.4907C29.1936 71.4907 29.0519 71.6329 29.0519 71.775Z" fill="#03AFAF" />
        <path d="M31.6028 86.6984C31.6028 87.409 31.4611 87.9775 31.4611 88.6882C31.4611 89.3988 31.6028 90.1094 31.6028 90.8201C31.7445 92.2414 32.1697 93.6627 32.8783 94.7997C33.02 95.0839 33.4451 95.2261 33.8703 95.2261C34.012 95.2261 34.2954 95.0839 34.2954 94.7997C34.4371 94.6576 34.4371 94.3733 34.4371 94.089C34.1537 93.3784 33.8703 92.6678 33.5868 92.0992C33.4451 91.6729 33.1617 91.1043 33.02 90.678C32.8783 90.1094 32.7365 89.5409 32.5948 89.1145C32.5948 88.4039 32.5948 87.5511 32.5948 86.6984C32.5948 86.4141 32.3114 86.272 32.1697 86.272C31.8862 86.272 31.7445 86.4141 31.6028 86.6984Z" fill="#03AFAF" />
        <path d="M88.7146 141.56C88.5729 141.56 88.5729 141.56 88.4311 141.56C87.4391 142.129 86.7305 142.697 86.022 143.408C85.7385 143.692 85.4551 144.118 85.1717 144.545C84.8882 144.971 84.6048 145.54 84.4631 145.824C84.0379 146.535 83.7545 147.387 83.6128 148.524C83.4711 149.377 83.3293 150.372 83.3293 151.509C83.3293 153.641 83.6128 155.631 83.8962 157.621L84.0379 158.9C84.3214 160.605 84.6048 162.311 84.7465 164.016C84.7465 164.159 84.7465 164.159 84.8882 164.301C84.4631 165.58 83.7545 167.001 83.0459 168.422C81.9122 170.554 80.495 172.686 79.2196 174.818C78.6527 175.813 77.9441 176.666 77.3773 177.661C76.2435 179.366 75.3932 180.93 74.6846 182.493C73.8343 184.199 73.1258 185.904 72.7006 187.752C72.1337 189.742 71.8503 191.874 71.8503 194.148C71.8503 196.138 71.992 198.127 72.2755 200.401C72.984 204.949 74.5429 209.213 75.9601 212.34C76.8104 214.33 77.6607 216.32 78.3693 218.025C78.511 218.167 78.6527 218.31 78.7944 218.452C78.7944 218.452 78.9361 218.594 79.0779 218.594C82.7625 220.015 86.8723 221.152 91.1238 221.863C95.2335 222.573 99.485 223 103.737 223.142C104.445 223.142 105.154 223.142 105.862 223.142C109.405 223.142 112.806 222.858 115.782 222.716C120.034 222.431 124.144 221.863 127.828 221.294C131.938 220.584 136.048 219.731 139.874 218.736C143.842 217.599 147.669 216.178 150.928 214.614C154.046 213.051 157.164 211.487 159.998 209.782C163.399 207.792 166.375 205.66 168.926 203.528C170.627 202.107 172.186 200.686 173.603 199.122C175.02 197.559 176.295 195.853 177.287 194.148C177.429 194.006 177.429 193.863 177.429 193.579C177.429 193.437 177.571 193.295 177.571 193.153C177.287 188.605 176.721 184.199 175.587 179.935C174.878 176.808 173.886 173.823 172.752 170.696C170.202 163.59 166.942 157.763 163.116 152.93C159.856 148.809 156.03 145.682 152.062 143.692C151.92 143.692 151.778 143.55 151.637 143.55H151.495C151.353 143.55 151.212 143.692 151.212 143.692L151.07 143.834C149.653 145.824 148.094 147.529 146.535 149.093C144.267 151.225 141.717 153.072 139.166 154.636C136.473 156.057 133.78 157.194 130.946 157.905H131.088C128.112 158.616 124.994 159.042 121.876 159.042H121.593H121.735C118.333 158.9 115.074 158.473 111.814 157.621C108.413 156.626 105.154 155.204 102.036 153.357C99.0599 151.509 96.2256 149.235 93.8164 146.677C92.3992 145.113 90.982 143.55 89.8483 141.844C89.7066 141.702 89.5649 141.56 89.4232 141.56C88.8563 141.56 88.8563 141.56 88.7146 141.56Z" fill="#FF505D" />
        <path d="M148.802 197.559C149.228 203.528 149.228 209.498 148.944 215.325C149.653 215.041 150.22 214.757 150.928 214.472C151.92 213.904 153.054 213.477 154.046 212.909C153.904 209.498 153.479 206.087 153.054 202.676C153.054 202.676 153.054 202.676 153.054 202.818C152.487 198.412 151.637 194.148 150.645 189.884C149.653 185.762 148.377 181.641 146.677 177.803C146.393 177.235 146.251 176.666 145.968 176.24C147.385 183.062 148.377 190.31 148.802 197.559Z" fill="#E44753" />
        <path d="M156.597 148.524C158.156 151.509 159.573 154.636 160.707 157.763C163.116 164.159 164.675 170.981 165.667 177.661C166.8 185.051 167.084 192.442 166.942 199.833C166.942 201.538 166.8 203.244 166.8 204.95C167.509 204.381 168.218 203.812 168.926 203.244C170.627 201.823 172.186 200.401 173.603 198.838C175.02 197.275 176.295 195.569 177.287 193.863C177.429 193.721 177.429 193.579 177.429 193.295C177.429 193.153 177.571 193.011 177.571 192.869C177.287 188.32 176.721 183.914 175.587 179.651C174.737 176.524 173.886 173.397 172.752 170.412C170.202 163.306 167.084 157.479 163.116 152.646C160.565 149.519 157.731 146.961 154.754 144.971C155.321 146.25 155.888 147.387 156.597 148.524Z" fill="#E44753" />
        <path d="M73.2675 75.186C74.2595 75.186 75.1098 75.3282 76.1018 75.7545C76.3853 75.8967 76.6687 76.0388 76.8104 76.1809C76.9521 76.4652 76.9521 76.7495 76.9521 77.0337C76.8104 77.318 76.6687 77.6022 76.3853 77.7444C76.9521 80.1605 77.3773 82.861 77.519 85.7036C77.8024 88.2619 77.8024 90.9623 77.8024 94.6577C77.9442 94.6577 77.9442 94.6577 78.0859 94.6577C78.511 94.6577 78.9362 94.9419 79.0779 95.5104C79.2196 96.079 78.9362 96.6475 78.3693 96.7896C77.8024 96.9317 77.2356 97.0739 76.6687 97.216C76.1018 97.3581 75.535 97.3581 74.9681 97.3581C73.9761 97.3581 72.9841 97.216 71.9921 96.9317C71.1418 96.6475 70.2915 96.2211 69.5829 95.5104C69.016 95.0841 68.4491 94.3734 67.8823 93.5206C67.4571 92.81 67.032 92.0994 66.6068 91.1045C66.3234 90.3938 66.04 89.541 65.8982 88.5461C65.6148 86.6985 65.6148 84.8508 65.8982 83.0031C66.04 81.8661 66.4651 80.5869 67.032 79.592C67.5988 78.455 68.3074 77.6022 69.1577 76.8916C70.1497 76.1809 71.1418 75.6124 72.1338 75.4703C72.5589 75.186 72.9841 75.186 73.2675 75.186Z" fill="#F3AB95" />
        <path d="M70.4331 79.1655C71.2834 79.4498 71.992 79.8762 72.7006 80.3026C73.4092 80.7289 74.1178 81.4396 74.6846 82.0081C75.2515 82.7187 75.8184 83.4294 76.2435 84.14C76.6687 84.9928 77.0938 85.8456 77.2355 86.8405C77.3773 87.1247 77.0938 87.5511 76.8104 87.5511C76.527 87.6933 76.1018 87.409 76.1018 87.1247C75.9601 86.5562 75.8184 85.9877 75.5349 85.4192C75.3932 84.9928 75.1098 84.5664 74.9681 84.14C74.6846 83.7136 74.4012 83.2873 74.1178 82.8609C73.8343 82.5766 73.5509 82.2924 73.2675 82.0081C72.984 81.7238 72.5589 81.4396 72.2755 81.1553C71.992 81.0132 71.7086 80.7289 71.4252 80.5868C71.1417 80.4447 70.8583 80.3026 70.5749 80.1604C70.4331 80.1604 70.4331 80.0183 70.2914 80.0183C70.008 79.8762 69.8663 79.734 70.008 79.4498C69.8663 79.3077 70.1497 79.1655 70.4331 79.1655C70.2914 79.1655 70.4331 79.1655 70.4331 79.1655Z" fill="#BF8675" />
        <path d="M96.7924 32.9741C96.9341 32.9741 96.9341 32.9741 97.0759 32.9741C97.2176 32.9741 97.3593 33.1162 97.3593 33.1162C99.0599 33.5426 100.619 33.8269 102.178 34.1111C107.846 35.3903 113.798 36.6695 119.609 38.2329C128.112 40.6491 134.772 43.4916 140.441 47.187C142.992 48.8925 145.401 50.5981 147.385 52.5879C149.511 54.5777 151.495 56.8517 153.196 59.4101C155.038 61.9684 156.455 64.6688 157.589 67.3693C158.864 70.2119 159.431 73.0544 159.573 75.897C160.14 75.897 160.707 75.897 161.273 75.897C163.257 75.897 165.1 76.3234 166.8 77.034C168.501 77.8868 169.918 79.3081 170.91 81.0136C171.76 82.577 172.186 84.5669 172.186 86.5567C172.186 88.5465 171.76 90.3941 170.91 92.2418C169.776 94.8001 167.934 97.0742 165.667 98.2112C164.391 98.9219 163.116 99.3482 161.699 99.4904C161.415 99.4904 161.273 99.4904 160.99 99.4904C159.998 99.4904 159.006 99.3482 157.872 99.064C156.88 101.48 155.605 103.754 154.046 105.886C152.204 108.444 150.078 110.861 147.669 112.993C142.992 117.114 137.465 120.241 131.088 122.515C128.112 123.51 124.994 124.221 121.876 124.647C119.467 124.931 117.2 125.216 114.932 125.216C114.082 125.216 113.373 125.216 112.523 125.216C109.547 125.074 106.287 124.505 102.886 123.652C99.9102 122.942 96.9341 121.805 94.2415 120.525C91.8323 119.388 89.4232 117.825 87.2974 115.977C85.3134 114.414 83.6128 112.424 81.9122 110.292C78.9361 106.313 76.8104 101.48 75.3932 95.795C74.1178 90.5363 73.6926 84.709 73.8343 78.0289C74.1178 71.2068 74.9681 64.811 76.6687 58.9837C78.3693 53.1564 80.6367 48.0398 83.6128 43.918C85.3134 41.644 87.1557 39.512 89.1397 37.8065C91.2655 35.9588 93.6747 34.5375 96.0838 33.2584C96.3673 32.9741 96.509 32.9741 96.7924 32.9741Z" fill="#FFB39C" />
        <path d="M97.0758 32.9739C97.2176 32.9739 97.3593 33.116 97.3593 33.116L100.76 33.8266L102.319 34.1109C107.988 35.3901 113.94 36.6692 119.75 38.2326C128.253 40.6488 134.914 43.4914 140.583 47.1867C143.134 48.8923 145.401 50.5978 147.527 52.5876C149.653 54.5774 151.637 56.8515 153.337 59.4098C155.18 61.9681 156.597 64.5265 157.731 67.369C158.581 69.501 159.289 71.6329 159.573 73.7648C159.573 73.907 159.431 73.907 159.431 73.907C158.864 75.044 158.014 76.0389 157.164 76.8917C156.597 77.4602 156.03 77.8866 155.321 78.3129C154.754 78.5972 154.188 78.8815 153.479 79.0236C152.77 79.1657 152.204 79.3078 151.495 79.3078C150.645 79.3078 149.794 79.1657 148.944 78.8815C148.944 78.8815 148.944 78.8815 149.086 78.8815C148.661 78.7393 148.236 78.5972 147.81 78.4551C147.527 78.3129 147.102 78.1708 146.818 78.0287C146.393 77.7444 145.826 77.4602 145.401 77.0338C144.976 76.7495 144.693 76.3231 144.267 76.0389C143.701 75.4704 143.275 74.9019 142.85 74.3333C142.425 73.7648 142 73.0542 141.575 72.4857C140.583 70.638 139.874 68.7903 139.307 66.8005C139.307 66.8005 139.307 66.8005 139.307 66.9426C139.166 66.6584 139.166 66.232 139.024 65.9477C139.024 65.8056 139.024 65.8056 138.882 65.6635L138.741 65.5214C138.599 65.3792 138.457 65.3792 138.315 65.3792C137.182 65.8056 136.048 66.232 134.772 66.5163C134.772 66.5163 134.772 66.5163 134.914 66.5163C132.93 67.0848 130.946 67.2269 128.962 67.2269C126.128 67.2269 123.293 66.8005 120.601 66.0899C120.601 66.0899 120.601 66.0899 120.743 66.0899C117.2 65.095 113.94 63.6737 110.822 61.826H110.964C107.846 59.9783 104.87 57.7043 102.319 55.146C100.477 53.1561 98.7764 51.0242 97.3593 48.608C96.7924 47.7553 96.3673 46.7604 95.9421 45.7655C95.517 44.7706 95.2335 43.7757 94.9501 42.7808C94.9501 42.6386 94.8084 42.4965 94.8084 42.3544C94.8084 42.2122 94.8084 42.2122 94.6667 42.0701L94.5249 41.928H94.3832C93.2495 42.3544 91.974 42.9229 90.982 43.6335C89.8483 44.3442 88.7146 45.1969 87.7226 46.1918C85.5968 48.0395 83.7545 50.0293 81.9122 52.0191C80.2116 53.8668 78.511 55.8566 77.0938 57.8464C78.7944 52.1613 81.0619 47.0446 84.0379 42.9229C85.5968 40.6488 87.4391 38.5169 89.5649 36.8113C91.6906 34.9637 94.0998 33.4003 96.509 32.2632C96.6507 32.2632 96.7924 32.1211 97.0758 32.1211C96.7924 32.8317 96.9341 32.8317 97.0758 32.9739Z" fill="#F3AB95" />
        <path d="M172.186 86.4142C172.186 88.404 171.76 90.2517 170.91 92.0993C169.776 94.6577 167.934 96.9317 165.667 98.0687C164.391 98.7794 163.116 99.2058 161.699 99.3479C161.415 99.3479 161.273 99.3479 160.99 99.3479C159.998 99.3479 159.006 99.2058 157.872 98.9215C156.88 101.196 155.605 103.47 154.046 105.602C152.204 108.16 150.078 110.576 147.669 112.708C142.992 116.83 137.323 119.957 131.088 122.231C128.112 123.226 124.994 123.936 121.876 124.505C119.467 124.789 117.2 125.073 114.932 125.073C114.082 125.073 113.373 125.073 112.523 125.073C112.381 125.073 112.381 125.073 112.24 125.073C113.09 125.073 113.798 124.931 114.649 124.931C117.341 124.647 120.034 124.22 122.585 123.51C125.277 122.799 127.97 121.946 130.663 120.809C133.639 119.53 136.473 118.109 139.307 116.403C142 114.698 144.693 112.85 146.96 110.576C149.228 108.444 151.212 106.17 152.912 103.612C153.762 102.333 154.471 101.053 155.18 99.7743C155.746 98.4951 156.313 97.216 156.739 95.9368C157.872 96.3632 159.006 96.5053 160.281 96.5053C161.557 96.5053 162.691 96.2211 163.824 95.6526C164.958 95.2262 166.092 94.5155 166.942 93.6628C167.792 92.9521 168.501 92.0993 169.068 91.2466C169.635 90.3938 170.202 89.3989 170.768 88.404C171.335 87.267 171.619 86.2721 171.902 85.135C171.902 84.8508 172.044 84.5665 172.044 84.1401C172.186 84.9929 172.186 85.7036 172.186 86.4142Z" fill="#F3AB95" />
        <path d="M161.699 81.4396C162.974 83.2872 163.257 85.7034 162.974 87.9775C162.691 90.1094 161.84 92.2413 160.423 93.9469C160.281 94.089 159.998 94.089 159.856 93.9469C159.715 93.8048 159.715 93.5205 159.856 93.3784C159.998 93.2362 160.14 93.0941 160.14 92.952C160.565 92.3835 160.848 91.815 161.132 91.2464V91.3886C161.273 90.9622 161.415 90.5358 161.557 90.1094C161.699 89.683 161.84 89.1145 161.84 88.546C161.982 87.6932 161.982 86.6983 161.84 85.8456C161.699 85.1349 161.557 84.4243 161.273 83.7136C160.99 83.1451 160.707 82.7187 160.423 82.1502C160.281 82.0081 160.281 81.7238 160.423 81.5817C160.423 81.4396 160.565 81.2974 160.707 81.1553C160.848 81.1553 160.99 81.0132 160.99 81.0132C161.273 81.0132 161.557 81.1553 161.699 81.4396Z" fill="#BF8675" />
        <path d="M166.234 81.1555C166.8 81.2976 167.367 81.4397 167.934 81.724C168.076 81.724 168.218 81.8661 168.218 82.0082C168.359 82.1504 168.359 82.2925 168.218 82.4346C168.076 82.7189 167.792 82.861 167.651 82.7189C167.367 82.5767 167.084 82.5767 166.8 82.4346C166.517 82.2925 166.234 82.2925 165.95 82.2925C165.525 82.2925 164.958 82.2925 164.533 82.2925C164.108 82.4346 163.683 82.4346 163.258 82.5767C162.832 82.7189 162.549 83.0031 162.124 83.1453C161.84 83.2874 161.557 83.2874 161.415 83.0031C161.132 82.7189 161.132 82.2925 161.415 82.1504C161.699 82.0082 161.84 81.8661 162.124 81.724C162.407 81.5818 162.691 81.4397 162.832 81.4397C163.399 81.2976 163.966 81.1555 164.533 81.1555C164.675 81.1555 164.675 81.1555 164.816 81.1555C165.242 81.0133 165.667 81.1555 166.234 81.1555Z" fill="#BF8675" />
        <path d="M109.547 74.1915C109.547 76.3234 109.689 78.4553 109.83 80.5873C109.83 81.7243 109.83 82.7192 109.83 83.8562C109.83 84.8511 109.689 85.846 109.547 86.8409C109.547 87.1252 109.122 87.2673 108.98 87.1252C108.413 86.6988 107.705 86.2724 106.996 85.846C106.571 85.7039 106.287 85.5618 105.862 85.5618C105.579 85.5618 105.437 85.5618 105.154 85.5618C105.012 85.5618 104.87 85.5618 104.729 85.7039C104.587 85.7039 104.445 85.846 104.303 85.9881C104.162 86.1303 104.02 86.2724 103.878 86.4145C103.878 86.4145 103.878 86.4145 103.878 86.5567C103.737 86.6988 103.737 86.8409 103.595 87.1252C103.453 87.4094 103.453 87.6937 103.311 87.9779C103.311 88.4043 103.311 88.8307 103.311 89.2571C103.453 89.6835 103.453 90.1099 103.737 90.5363C103.878 90.9626 104.162 91.389 104.445 91.8154C104.445 91.8154 104.445 91.6733 104.303 91.6733C104.587 91.9575 104.87 92.3839 105.295 92.6682C105.721 92.9524 106.146 93.2367 106.571 93.3788C106.854 93.521 107.138 93.6631 107.563 93.6631C107.988 93.8052 108.13 94.2316 108.13 94.5159C107.988 94.9422 107.563 95.0844 107.279 95.0844C106.854 94.9423 106.429 94.8001 106.004 94.5159C105.579 94.2316 105.154 93.9474 104.87 93.6631C104.162 93.0946 103.737 92.5261 103.311 91.8154C102.886 91.1048 102.744 90.3941 102.603 89.6835C102.461 88.9728 102.461 88.2622 102.603 87.5516C102.744 86.983 103.028 86.4145 103.453 85.9881C103.878 85.5618 104.445 85.2775 105.012 85.1354C105.721 84.9932 106.429 85.1354 107.138 85.2775C107.846 85.5618 108.555 85.9881 109.263 86.4145C109.263 86.2724 109.263 86.1303 109.263 85.9881V86.1303C109.689 82.2928 109.263 78.4553 109.263 74.6178C109.263 74.4757 109.405 74.1915 109.689 74.1915C109.405 73.9072 109.547 74.0493 109.547 74.1915ZM103.737 86.4145C103.737 86.4145 103.878 86.4145 103.737 86.4145V86.4145Z" fill="#BF8675" />
        <path d="M127.687 83.0034C127.687 80.1608 129.104 77.8867 130.804 77.8867C132.505 77.8867 133.922 80.1608 133.922 83.0034C133.922 85.8459 132.505 88.12 130.804 88.12C129.104 88.12 127.687 85.8459 127.687 83.0034Z" fill="#3A0241" />
        <path d="M130.096 71.7751C126.836 70.3539 124.427 68.2219 124.994 66.9428C125.561 65.6636 128.679 65.8057 131.938 67.227C135.198 68.6483 137.607 70.7802 137.04 72.0594C136.615 73.1964 133.497 73.0543 130.096 71.7751Z" fill="#3A0241" />
        <path d="M94.2415 81.1556C94.2415 78.4552 92.9661 76.3232 91.2655 76.3232C89.7066 76.3232 88.2894 78.4552 88.2894 81.1556C88.2894 83.8561 89.5649 85.988 91.2655 85.988C92.9661 86.1301 94.2415 83.8561 94.2415 81.1556Z" fill="#3A0241" />
        <path d="M91.9741 70.4958C95.0918 69.2166 97.3593 67.0847 96.7924 65.9477C96.3673 64.8106 93.3912 64.8106 90.1317 66.2319C87.014 67.5111 84.7465 69.643 85.3134 70.78C85.8802 71.9171 88.8563 71.9171 91.9741 70.4958Z" fill="#3A0241" />
        <path d="M159.715 75.4704C159.715 75.8968 159.856 76.1811 159.856 76.6074C156.739 80.587 153.479 84.2824 149.794 87.8356C145.826 91.6731 141.717 95.2263 137.323 98.4953C137.04 98.7795 136.615 98.7795 136.331 98.3531C136.048 98.0689 136.048 97.6425 136.473 97.3582C139.591 95.0842 142.709 92.5259 145.543 89.9675C148.519 87.2671 151.353 84.4245 153.904 81.5819L153.762 81.7241C155.746 79.5921 157.589 77.176 159.431 74.9019L159.573 74.7598C159.573 75.044 159.715 75.3283 159.715 75.4704Z" fill="#FEFEFE" />
        <path d="M157.731 99.4903C157.447 100.201 157.164 100.769 156.88 101.48C150.786 104.891 144.409 107.592 137.89 109.581C137.749 109.581 137.465 109.581 137.323 109.439C137.182 109.297 137.04 109.155 137.04 109.013C137.04 108.871 137.04 108.587 137.182 108.444C137.323 108.302 137.465 108.16 137.607 108.16C138.174 108.018 138.882 107.734 139.449 107.592C145.826 105.46 152.062 102.759 157.872 99.3481C157.731 99.3481 157.731 99.4903 157.731 99.4903Z" fill="#FEFEFE" />
        <path d="M78.0858 82.4346C80.3533 87.267 82.7625 91.9572 85.5968 96.5053C85.7385 96.7896 85.7385 97.216 85.3134 97.5002C85.03 97.6423 84.6048 97.6423 84.3214 97.216C80.2116 90.678 76.9521 83.5716 73.8344 76.4652V76.323C73.8344 75.7545 73.9761 75.186 73.9761 74.6175C73.9761 74.1911 73.9761 73.7647 74.1178 73.4805C75.3932 76.4652 76.6687 79.4499 78.0858 82.4346Z" fill="#FEFEFE" />
        <path d="M85.1716 105.175C85.4551 105.46 85.4551 105.886 85.1716 106.17C85.0299 106.312 84.8882 106.455 84.6048 106.455C84.4631 106.455 84.3213 106.455 84.0379 106.312C81.487 104.323 78.9361 102.475 76.5269 100.343C76.3852 99.7746 76.2435 99.206 75.9601 98.4954C75.8183 98.2111 75.8184 97.7847 75.6766 97.5005C78.7944 100.343 81.9122 102.759 85.1716 105.175Z" fill="#FEFEFE" />
        <path d="M106.429 83.856C106.713 83.856 106.996 83.856 107.421 83.856C108.13 83.9981 108.838 83.9981 109.547 84.2823C110.114 84.4245 110.539 84.5666 111.106 84.8509C111.106 84.8509 111.106 84.8509 111.247 84.8509C113.515 85.7036 115.641 86.8407 117.625 88.1198C119.75 89.399 121.876 90.6781 124.144 91.8152C124.144 91.9573 124.285 91.9573 124.285 91.9573C126.695 93.0943 129.104 94.2314 131.796 94.942C133.072 95.2263 134.347 95.5105 135.623 95.6526C136.331 95.6526 136.898 95.7948 137.607 95.7948C138.032 95.7948 138.457 95.7948 138.882 95.7948C139.449 96.5054 139.874 97.2161 140.158 98.0688C140.866 99.6322 141.433 101.48 141.717 103.185C142.142 105.602 142.283 108.018 142 110.576C142 110.576 142 110.576 142 110.434C141.858 112.566 141.291 114.84 140.583 116.83C140.299 117.398 140.016 118.109 139.732 118.677C137.04 120.241 134.206 121.378 131.088 122.515C128.112 123.51 124.994 124.221 121.876 124.789C119.467 125.073 117.058 125.358 114.932 125.358C114.082 125.358 113.373 125.358 112.523 125.358H112.239H112.523C109.547 125.215 106.287 124.647 103.028 123.794C99.9101 122.941 97.0758 121.946 94.3832 120.667C91.974 119.53 89.5648 117.967 87.4391 116.119C85.8802 114.84 84.3213 113.277 82.9041 111.429C82.6207 110.718 82.479 109.866 82.3373 109.155C81.9121 107.165 81.9121 105.033 82.0538 103.043C82.0538 103.043 82.0538 103.043 82.0538 103.185C82.1956 101.338 82.6207 99.6322 83.1876 97.9267V98.0688C83.6127 97.0739 84.0379 96.2212 84.6047 95.3684C85.455 95.2263 86.4471 95.0841 87.2974 94.942C88.0059 94.7999 88.7145 94.6577 89.4231 94.5156C90.6986 94.2314 91.974 93.805 93.1077 93.2364C94.3832 92.5258 95.5169 91.8152 96.5089 90.8203C96.7924 90.536 97.2175 90.1096 97.501 89.8254C97.7844 89.5411 98.0678 89.2568 98.3513 88.8305C98.9181 88.2619 99.485 87.6934 100.194 87.1249C100.194 87.1249 100.194 87.1249 100.052 87.1249C100.477 86.6985 100.902 86.4143 101.469 86.13C101.894 85.8458 102.461 85.5615 102.886 85.2772C103.311 85.1351 103.595 84.993 104.02 84.8509C104.445 84.7087 104.728 84.7087 105.154 84.5666C105.579 84.5666 106.004 84.4245 106.429 84.4245V83.856Z" fill="#04BFBF" />
        <path d="M106.429 83.856C106.713 83.856 106.996 83.856 107.279 83.856C108.13 83.9981 108.838 83.9981 109.405 84.2823C109.972 84.4245 110.397 84.5666 110.964 84.8509C113.232 85.7036 115.357 86.8407 117.341 88.1198L118.9 88.9726C120.459 89.9675 122.16 90.9624 123.86 91.8152C123.86 91.9573 124.002 91.9573 124.002 91.9573C126.128 92.9522 128.679 94.2314 131.513 94.942C132.93 95.3684 134.206 95.5105 135.339 95.6526C136.048 95.6526 136.615 95.7948 137.323 95.7948H137.607C137.89 95.7948 138.174 95.7948 138.457 95.7948C139.024 96.5054 139.449 97.2161 139.733 98.0688C140.441 99.6322 141.008 101.338 141.291 103.185C141.717 105.602 141.858 108.018 141.575 110.576C141.291 112.85 140.866 114.982 140.158 116.972C139.874 117.683 139.591 118.251 139.307 118.82C136.615 120.383 133.78 121.662 130.663 122.657C127.687 123.652 124.569 124.363 121.451 124.931C118.9 125.215 116.633 125.5 114.507 125.5C113.657 125.5 112.948 125.5 112.098 125.5H111.814L111.956 125.358C109.122 125.215 105.862 124.789 102.461 123.936C99.3433 123.083 96.509 122.089 93.8163 120.809C91.5489 119.672 89.2814 118.251 87.1557 116.546C88.4311 117.256 89.5648 117.825 90.982 118.393C94.3832 119.815 97.9261 120.952 101.469 121.662C105.012 122.373 108.555 122.799 112.098 122.799C113.94 122.799 115.641 122.799 117.483 122.657C119.325 122.515 121.168 122.231 123.01 121.804C124.711 121.378 126.411 120.809 128.112 119.957C129.529 119.246 130.804 118.251 131.938 117.114C132.93 116.119 133.639 114.982 134.206 113.703C134.772 112.424 135.198 111.145 135.339 109.723C135.481 108.302 135.481 107.023 135.198 105.602C135.056 104.891 134.914 104.323 134.631 103.612C134.347 103.043 134.064 102.475 133.78 101.906C133.355 101.338 132.93 100.769 132.363 100.343C131.796 99.9165 131.23 99.348 130.663 99.0637C130.238 98.7795 129.812 98.4952 129.245 98.3531C128.82 98.211 128.395 98.0688 127.97 97.9267C127.12 97.6424 126.269 97.5003 125.419 97.2161C124.711 97.0739 124.002 96.7897 123.293 96.5054C122.585 96.2212 121.735 95.7948 121.026 95.3684C121.026 95.3684 121.026 95.3684 121.168 95.3684C120.176 94.7999 119.184 94.0892 118.333 93.3786C117.483 92.6679 116.633 92.0994 115.782 91.3888C114.224 90.2518 112.806 88.9726 111.389 87.8356C110.539 87.267 109.83 86.6985 108.98 86.2721C108.13 85.8458 107.279 85.4194 106.429 85.1351C106.004 84.993 105.437 84.8509 105.012 84.7087H105.154C105.579 84.7087 106.004 84.5666 106.429 84.5666V83.856Z" fill="#03A5A5" />
        <path d="M107.421 88.2617C107.846 88.2617 108.271 88.4038 108.697 88.546C109.122 88.6881 109.689 88.8302 110.114 89.1145C110.964 89.5409 111.956 90.1094 112.665 90.6779C113.515 91.2464 114.365 91.9571 115.074 92.6677C115.499 93.0941 116.066 93.3784 116.491 93.8048C117.058 94.2311 117.483 94.6575 118.05 95.0839C118.192 95.226 118.192 95.6524 118.05 95.7946C117.908 95.9367 117.908 95.9367 117.766 95.9367C117.625 95.9367 117.483 95.9367 117.483 95.7946C117.2 95.6524 117.058 95.3682 116.774 95.226C116.208 94.7997 115.641 94.3733 115.074 93.9469C114.507 93.5205 113.94 93.0941 113.373 92.6677C112.098 91.6728 110.964 90.82 109.547 90.2515C109.263 90.1094 108.838 89.9673 108.555 89.8251C108.13 89.683 107.846 89.683 107.421 89.5409C107.138 89.5409 106.854 89.5409 106.571 89.5409C106.146 89.5409 105.721 89.5409 105.295 89.683H105.437C104.87 89.8251 104.445 89.8251 103.878 89.9673C103.453 90.1094 103.028 90.2515 102.461 90.3937C101.611 90.82 100.902 91.2464 100.052 91.6728C99.2016 92.2413 98.493 92.8098 97.7844 93.3784C97.0759 93.9469 96.2256 94.5154 95.3753 95.0839C94.525 95.6524 93.6747 96.0788 92.8244 96.5052C92.6826 96.5052 92.6826 96.5052 92.5409 96.5052C92.3992 96.5052 92.3992 96.3631 92.2575 96.3631C92.1158 96.2209 92.2575 95.9367 92.3992 95.9367C93.1078 95.6524 93.9581 95.226 94.6667 94.7996C95.3753 94.3733 96.0838 93.8047 96.6507 93.3784C96.6507 93.3784 96.6507 93.3784 96.509 93.3784C98.0679 92.0992 99.6268 90.82 101.469 89.8251C102.319 89.3988 103.311 88.9724 104.303 88.6881C105.012 88.546 105.721 88.4039 106.571 88.4039C106.713 88.2617 106.996 88.2617 107.421 88.2617ZM107.279 89.2566C107.279 89.3988 107.421 89.3988 107.279 89.2566C107.421 89.3988 107.279 89.3988 107.279 89.2566Z" fill="#03A5A5" />
        <path d="M88.2894 98.353C88.4311 98.4952 88.7146 98.6373 88.998 98.7794C89.2814 98.9215 89.4231 99.0637 89.7066 99.2058C90.2734 99.4901 90.6986 99.7743 91.2655 100.059H91.1237C94.3832 101.764 97.7844 102.901 101.327 103.754C106.571 104.891 111.814 105.175 117.2 104.891C121.593 104.607 126.128 104.038 130.379 102.901C130.521 102.901 130.804 103.043 130.804 103.185C130.804 103.328 130.663 103.612 130.521 103.612C127.403 104.465 124.285 105.033 121.026 105.317C117.625 105.744 114.082 105.886 110.681 105.744C107.138 105.602 103.737 105.175 100.335 104.465C98.6347 104.038 97.0758 103.612 95.3752 103.043C93.6746 102.333 92.1158 101.622 90.6986 100.911C90.1317 100.627 89.7066 100.343 89.2814 100.059C88.998 99.9164 88.8563 99.7743 88.7146 99.6322C88.4311 99.4901 88.1477 99.2058 88.006 99.0637C87.8643 98.9215 87.8643 98.7794 87.8643 98.4952C87.8643 98.353 88.006 98.353 88.1477 98.353H88.2894ZM101.186 103.612C101.186 103.612 101.044 103.612 101.186 103.612C101.044 103.612 101.186 103.612 101.186 103.612Z" fill="#03A5A5" />
        <path d="M90.2734 105.602C91.1237 106.17 91.974 106.596 92.8243 107.023C96.0838 108.728 99.6267 109.865 103.17 110.718H103.028C107.563 111.713 112.239 112.139 116.916 111.855C116.916 111.855 116.916 111.855 117.058 111.855C120.176 111.713 123.293 111.287 126.269 110.434C126.411 110.434 126.695 110.576 126.695 110.718C126.695 110.86 126.553 111.145 126.411 111.145C124.994 111.571 123.577 111.855 122.16 112.139C120.601 112.424 118.9 112.566 117.341 112.708C114.082 112.85 110.822 112.85 107.563 112.424C104.303 111.997 101.186 111.287 98.0678 110.292C96.6506 109.865 95.2335 109.297 93.8163 108.586C93.1077 108.302 92.5409 107.876 91.8323 107.591C91.4071 107.449 91.1237 107.165 90.8403 107.023C90.5568 106.881 90.1317 106.596 89.8482 106.312C89.7065 106.17 89.5648 105.886 89.7065 105.744C89.8482 105.602 89.99 105.602 90.1317 105.602C90.1317 105.602 90.2734 105.602 90.2734 105.602ZM117.058 111.997C117.058 111.997 116.916 111.997 117.058 111.997C116.916 111.997 117.058 111.997 117.058 111.997Z" fill="#03A5A5" />
        <path d="M96.7924 114.271C98.0679 114.84 99.2016 115.409 100.477 115.835C101.752 116.261 103.028 116.688 104.303 116.972C106.146 117.398 108.13 117.683 109.972 117.825C111.956 117.967 113.94 117.967 115.924 117.825C115.924 117.825 115.924 117.825 116.066 117.825C116.349 117.825 116.491 117.825 116.774 117.825C116.916 117.825 116.916 117.825 117.058 117.825C117.2 117.825 117.2 117.967 117.2 118.109C117.2 118.251 117.2 118.251 117.2 118.393C117.2 118.393 117.058 118.535 116.916 118.535C115.216 118.677 113.515 118.677 111.673 118.677C109.972 118.677 108.13 118.535 106.429 118.251C104.729 117.967 103.028 117.683 101.469 117.114C100.619 116.83 99.7684 116.546 98.9181 116.119C98.0679 115.835 97.3593 115.409 96.509 114.982C96.3672 114.84 96.3672 114.698 96.3672 114.556C96.3672 114.414 96.509 114.414 96.509 114.414C96.6507 114.271 96.6507 114.271 96.7924 114.271Z" fill="#03A5A5" />
        <path d="M105.295 28.2837H105.579C108.838 28.2837 112.098 28.7101 115.782 29.5628C122.443 30.9841 129.246 33.6846 136.048 37.3799C142 40.6489 147.244 44.4864 151.92 48.7502C153.196 49.8873 154.188 50.8822 155.038 51.8771C156.172 53.1562 157.305 54.5775 158.581 56.4252C160.423 59.2678 162.124 62.3946 163.824 66.5163C163.966 66.5163 163.966 66.6585 164.108 66.6585C164.25 66.9427 164.391 67.0848 164.391 67.5112C164.391 70.3538 163.399 73.3385 161.84 75.7547C160.14 78.313 157.589 80.0186 154.896 80.0186H154.613C153.196 80.0186 151.778 79.5922 150.361 78.8815C149.228 78.313 148.094 77.3181 146.96 76.1811C146.11 75.1862 145.401 74.0492 144.551 72.4857C143.984 71.3487 143.417 69.9274 142.85 68.2219C142 65.6636 141.433 62.821 141.008 59.552C140.725 59.6942 140.299 59.9784 140.016 60.1205C139.166 60.5469 138.315 60.8312 137.323 60.9733C135.764 61.3997 134.064 61.8261 132.363 61.9682C131.371 62.1103 130.238 62.1103 129.246 62.1103C126.978 62.1103 124.711 61.8261 122.585 61.3997C116.208 59.9784 110.255 56.8516 105.154 52.1613C101.044 48.3238 97.7844 43.6336 95.9421 38.8012C95.2335 39.2276 94.3832 39.654 93.5329 40.0804C90.6986 41.9281 87.7226 44.2021 85.0299 46.9026C81.6287 50.4558 78.6527 54.5775 76.2435 58.8414L76.1018 59.1256L75.9601 59.2678C75.8184 59.552 75.6767 59.6941 75.3932 59.8363C75.2515 59.8363 75.1098 59.9784 74.9681 59.9784C74.8264 59.9784 74.8264 59.9784 74.6846 59.9784H74.5429C74.2595 59.9784 73.976 59.8363 73.8343 59.552C73.6926 59.2678 73.5509 59.1256 73.5509 58.8414C74.4012 52.4456 76.8104 46.1919 80.495 40.6489C82.479 37.8063 84.6048 35.3901 87.1557 33.4003C88.4311 32.4054 89.7066 31.5527 91.2655 30.842C92.5409 30.2735 93.9581 29.705 95.8004 29.1365C98.7765 28.7101 101.894 28.2837 105.295 28.2837Z" fill="#3A0241" />
        <path d="M98.9182 34.9635C99.2016 35.3899 99.485 35.8163 99.7685 36.2427C99.7685 36.2427 99.7685 36.2427 99.7685 36.3848C100.902 38.0904 102.178 39.6538 103.453 41.0751C104.729 42.6385 106.287 44.0598 107.705 45.3389C108.413 45.9074 109.122 46.476 109.972 47.0445C110.681 47.613 111.531 48.1815 112.24 48.6079C113.798 49.6028 115.499 50.5977 117.2 51.3083C118.617 51.8768 120.034 52.5875 121.451 53.0139C123.01 53.4403 124.427 53.8666 125.986 54.1509C127.261 54.293 128.537 54.4352 129.671 54.5773C131.088 54.7194 132.363 54.5773 133.78 54.5773C133.922 54.5773 134.206 54.5773 134.347 54.7194C134.631 54.8615 134.772 55.1458 134.772 55.4301C134.772 55.7143 134.772 55.9986 134.631 56.2828C134.489 56.5671 134.206 56.7092 133.922 56.7092C132.08 56.9935 130.238 56.9935 128.395 56.8514C126.553 56.7092 124.852 56.425 123.01 55.8564C119.467 54.8615 116.208 53.2981 113.232 51.4505C112.523 51.0241 111.814 50.4556 111.106 49.887C110.397 49.3185 109.547 48.75 108.838 48.1815C107.421 47.0445 106.146 45.7653 104.87 44.4862C103.595 43.207 102.461 41.7857 101.327 40.3644C100.194 38.9431 99.3433 37.5218 98.3513 36.1006L97.9261 35.3899C97.7844 35.2478 97.9261 34.9635 98.0678 34.9635H98.2096C98.7764 34.8214 98.7764 34.8214 98.9182 34.9635ZM99.7685 36.3848C99.7685 36.2427 99.7685 36.2427 99.7685 36.3848V36.3848Z" fill="#2D0133" />
        <path d="M102.319 32.4053C102.461 32.4053 102.461 32.5474 102.461 32.5474L102.603 32.6896C104.445 35.39 106.713 37.6641 109.122 39.796C109.83 40.3645 110.681 41.0752 111.389 41.6437C112.24 42.3543 113.232 42.9228 114.082 43.4914C114.365 43.6335 114.507 44.0599 114.224 44.3441C114.082 44.4863 113.94 44.6284 113.798 44.6284C113.657 44.6284 113.515 44.6284 113.373 44.4862C111.248 42.7807 109.122 41.0752 107.138 39.2275C106.146 38.2326 105.154 37.2377 104.303 36.1007C103.453 35.1058 102.603 33.9687 101.894 32.6896C101.753 32.5474 101.894 32.2632 102.036 32.2632C102.036 32.4053 102.178 32.4053 102.319 32.4053C102.178 32.4053 102.319 32.4053 102.319 32.4053Z" fill="#2D0133" />
        <path d="M138.457 28.9945C143.984 32.2635 149.086 36.3852 153.054 41.5019C153.904 42.6389 154.754 43.9181 155.605 45.1972C156.455 46.6185 157.305 48.1819 158.156 49.6032C159.715 52.4458 161.273 55.2884 162.832 57.9888C163.541 59.268 164.391 60.5471 165.242 61.6842C165.242 61.6842 165.242 61.542 165.1 61.542C165.95 62.8212 166.8 63.9582 167.792 65.0952C168.784 66.2323 169.776 67.2272 170.91 68.2221C171.902 69.0749 172.894 69.7855 174.028 70.4961C175.162 71.2068 176.437 71.9174 177.571 72.4859C177.571 72.4859 177.713 72.4859 177.713 72.6281C177.713 72.6281 177.571 72.6281 177.571 72.4859C178.421 72.9123 179.271 73.1966 180.122 73.4808C180.689 73.7651 181.114 74.3336 180.83 74.9021C180.689 75.1864 180.547 75.4706 180.263 75.6128C179.98 75.7549 179.697 75.7549 179.413 75.6128C177.713 74.9021 176.012 74.1915 174.453 73.1966C173.036 72.3438 171.619 71.491 170.343 70.4961C167.934 68.5063 165.95 66.2323 164.108 63.674C163.257 62.3948 162.407 61.1156 161.557 59.8365C160.707 58.5573 159.998 57.136 159.289 55.7147C158.581 54.2935 157.872 52.8722 157.164 51.4509C156.455 49.8875 155.605 48.4662 154.754 47.0449C154.046 45.7657 153.337 44.6287 152.629 43.4917C150.361 40.3648 147.669 37.5223 144.834 34.964C144.834 34.964 144.834 34.9639 144.693 34.8218C142.85 33.2584 141.008 31.9792 139.024 30.7001C137.04 29.4209 134.914 28.2839 132.647 27.289H132.788C129.104 25.5835 125.136 24.3043 121.026 23.5937H121.168C118.05 23.0251 114.932 22.883 111.814 23.0251C111.814 23.0251 111.814 23.0251 111.956 23.0251C109.405 23.1673 106.854 23.7358 104.445 24.5886C103.453 24.8728 102.603 25.2992 101.611 25.7256C101.469 25.8677 101.186 25.7256 101.186 25.5835C101.044 25.4413 101.186 25.1571 101.327 25.1571C105.579 23.1673 110.114 22.1724 114.79 22.1724C123.293 22.1724 131.513 25.0149 138.457 28.9945ZM145.118 34.964C144.976 34.964 145.118 34.964 145.118 34.964V34.964Z" fill="#2D0133" />
        <path d="M141.433 25.2988C142.567 25.8673 143.701 26.4359 144.834 27.0044C145.968 27.5729 146.96 28.2835 148.094 28.9942C150.078 30.2733 152.062 31.8368 153.904 33.4002C155.746 34.9636 157.447 36.8113 159.148 38.6589C160.848 40.6487 162.407 42.6385 163.824 44.9126C163.966 45.0547 163.966 45.339 163.824 45.4811C163.824 45.6232 163.683 45.9075 163.399 45.9075C163.257 46.0496 162.974 46.0496 162.832 45.9075C162.549 45.7654 162.549 45.6232 162.407 45.4811C161.84 44.6283 161.415 43.9177 160.848 43.0649C160.848 43.0649 160.848 43.0649 160.848 43.2071C159.573 41.2172 158.014 39.3696 156.455 37.664C154.896 35.9585 153.337 34.3951 151.637 32.9738C150.078 31.6946 148.377 30.4155 146.677 29.2784C144.834 28.1414 142.992 27.0044 141.008 26.0095C140.866 25.8673 140.866 25.7252 140.866 25.5831C140.866 25.441 141.008 25.441 141.15 25.441C141.291 25.2988 141.291 25.2988 141.433 25.2988Z" fill="#2D0133" />
        <path d="M88.5728 38.6592C88.7146 38.8013 88.5728 39.0856 88.4311 39.0856C87.1557 39.9384 85.8802 40.7911 84.7465 41.7861H84.8882C83.6128 42.9231 82.479 44.0601 81.3453 45.1971C80.2116 46.4763 79.0778 47.8976 78.0858 49.3189C77.2355 50.598 76.3852 51.8772 75.6766 53.2985C74.9681 54.7198 74.2595 56.1411 73.6926 57.5623C73.5509 57.8466 73.4092 57.9887 73.1257 57.9887C72.8423 58.1309 72.5589 57.9887 72.4171 57.9887C72.1337 57.8466 71.992 57.7045 71.992 57.4202C71.8503 57.136 71.992 56.8517 71.992 56.7096C72.7006 54.8619 73.8343 53.1564 74.8263 51.5929C75.9601 49.7453 77.3772 48.1818 78.7944 46.4763C81.487 43.3495 84.6048 40.649 88.1477 38.5171H88.2894C88.4311 38.5171 88.5728 38.6592 88.5728 38.6592Z" fill="#2D0133" />
        <path d="M61.3633 71.9174C61.505 72.0595 61.505 72.2016 61.3633 72.4859C61.2216 72.628 61.0799 72.9123 60.9382 73.0544C59.9462 74.4757 59.2376 75.897 58.529 77.4604C58.1038 78.8817 57.6787 80.303 57.537 81.8664C57.537 81.8664 57.537 81.8664 57.537 82.0085C57.3953 83.8562 57.537 85.7039 57.8204 87.5515V87.4094C58.1038 88.8307 58.3873 90.1099 58.8124 91.389C59.0959 92.0997 59.2376 92.8103 59.521 93.3788C59.8044 94.0895 60.0879 94.8001 60.3713 95.5107C60.7964 96.7899 61.2216 98.2112 61.3633 99.6325C61.505 100.912 61.505 102.191 61.3633 103.47C61.2216 105.744 60.3713 108.018 59.3793 110.15C58.8124 111.287 58.2456 112.282 57.6787 113.419C56.9701 114.698 56.1198 115.977 55.4112 117.256C55.2695 117.541 54.9861 117.825 54.7026 117.825C54.4192 117.967 53.9941 117.967 53.7106 117.683C53.1438 117.399 52.8603 116.546 53.1438 115.977C54.8444 112.708 56.9701 109.724 58.2456 106.17C58.6707 104.891 58.9541 103.612 59.0959 102.333C59.2376 100.77 59.0959 99.064 58.8124 97.5005C58.6707 96.3635 58.2456 95.2265 57.9621 94.0895C57.6787 92.9524 57.3953 91.8154 57.1118 90.6784C56.6867 88.5464 56.4032 86.4145 56.4032 84.2826C56.4032 82.1506 56.8284 80.1608 57.3953 78.171C57.8204 77.1761 58.2456 76.0391 58.6707 75.1863C59.2376 74.1914 59.9462 73.1965 60.6547 72.2016C60.6547 72.0595 60.7965 72.0595 60.9382 72.0595C61.0799 71.7752 61.2216 71.9174 61.3633 71.9174ZM58.8124 97.2163C58.8124 97.3584 58.8124 97.3584 58.8124 97.2163C58.8124 97.3584 58.8124 97.3584 58.8124 97.2163ZM57.6787 81.8664C57.6787 81.8664 57.6787 81.7243 57.6787 81.8664V81.8664Z" fill="#2D0133" />
    </g>
    <defs>
        <clipPath id="clip0">
            <rect width="213" height="223" fill="white" />
        </clipPath>
    </defs>
</svg>
